%!PS-Adobe-3.0 EPSF-3.0
%%Title: ctl.eps
%%Creator: matplotlib version 1.3.1, http://matplotlib.org/
%%CreationDate: Tue Jun 10 18:09:13 2014
%%Orientation: portrait
%%BoundingBox: 185 299 426 492
%%EndComments
%%BeginProlog
/mpldict 10 dict def
mpldict begin
/m { moveto } bind def
/l { lineto } bind def
/r { rlineto } bind def
/c { curveto } bind def
/cl { closepath } bind def
/box {
m
1 index 0 r
0 exch r
neg 0 r
cl
} bind def
/clipbox {
box
clip
newpath
} bind def
%!PS-Adobe-3.0 Resource-Font
%%Title: cmr10
%%Copyright: Copyright (C) 1994, Basil K. Malyshev. All Rights Reserved.012BaKoMa Fonts Collection, Level-B.
%%Creator: Converted from TrueType to type 3 by PPR
25 dict begin
/_d{bind def}bind def
/_m{moveto}_d
/_l{lineto}_d
/_cl{closepath eofill}_d
/_c{curveto}_d
/_sc{7 -1 roll{setcachedevice}{pop pop pop pop pop pop}ifelse}_d
/_e{exec}_d
/FontName /Cmr10 def
/PaintType 0 def
/FontMatrix[.001 0 0 .001 0 0]def
/FontBBox[-44 -250 1009 750]def
/FontType 3 def
/Encoding [ /zero ] def
/FontInfo 10 dict dup begin
/FamilyName (cmr10) def
/FullName (cmr10) def
/Notice (Copyright (C) 1994, Basil K. Malyshev. All Rights Reserved.012BaKoMa Fonts Collection, Level-B. ) def
/Weight (Regular) def
/Version (1.1/12-Nov-94) def
/ItalicAngle 0.0 def
/isFixedPitch false def
/UnderlinePosition -133 def
/UnderlineThickness 20 def
end readonly def
/CharStrings 1 dict dup begin
/zero{{500 0 39 -21 460 666 _sc
250 -21 _m
168 -21 112 12 83 79 _c
53 146 39 226 39 319 _c
39 377 44 431 55 482 _c
65 533 86 576 118 612 _c
149 648 193 666 250 666 _c
294 666 330 655 358 634 _c
386 612 407 585 422 551 _c
436 517 446 480 452 441 _c
457 402 460 361 460 319 _c
460 261 454 208 444 158 _c
433 108 412 65 381 31 _c
350 -3 306 -21 250 -21 _c
250 4 _m
}_e{287 4 315 23 333 61 _c
351 99 362 141 366 187 _c
370 233 373 283 373 335 _c
373 385 370 431 366 473 _c
362 515 351 554 333 588 _c
315 622 287 640 250 640 _c
212 640 184 622 166 588 _c
148 554 136 515 132 473 _c
128 431 126 385 126 335 _c
126 297 126 262 128 230 _c
130 197 135 163 143 128 _c
151 93 163 64 181 40 _c
198 16 221 4 250 4 _c
_cl}_e}_d
end readonly def

/BuildGlyph
 {exch begin
 CharStrings exch
 2 copy known not{pop /.notdef}if
 true 3 1 roll get exec
 end}_d

/BuildChar {
 1 index /Encoding get exch get
 1 index /BuildGlyph get exec
}_d

FontName currentdict end definefont pop
%!PS-Adobe-3.0 Resource-Font
%%Title: cmmi10
%%Copyright: Copyright (C) 1994, Basil K. Malyshev. All Rights Reserved.012BaKoMa Fonts Collection, Level-B.
%%Creator: Converted from TrueType to type 3 by PPR
25 dict begin
/_d{bind def}bind def
/_m{moveto}_d
/_l{lineto}_d
/_cl{closepath eofill}_d
/_c{curveto}_d
/_sc{7 -1 roll{setcachedevice}{pop pop pop pop pop pop}ifelse}_d
/_e{exec}_d
/FontName /Cmmi10 def
/PaintType 0 def
/FontMatrix[.001 0 0 .001 0 0]def
/FontBBox[-34 -250 1048 750]def
/FontType 3 def
/Encoding [ /W /G ] def
/FontInfo 10 dict dup begin
/FamilyName (cmmi10) def
/FullName (cmmi10) def
/Notice (Copyright (C) 1994, Basil K. Malyshev. All Rights Reserved.012BaKoMa Fonts Collection, Level-B. ) def
/Weight (Regular) def
/Version (1.1/12-Nov-94) def
/ItalicAngle 0.0 def
/isFixedPitch false def
/UnderlinePosition -133 def
/UnderlineThickness 20 def
end readonly def
/CharStrings 2 dict dup begin
/W{{944 0 54 -21 1048 683 _sc
178 -10 _m
132 626 _l
129 636 121 642 109 644 _c
97 646 82 648 64 648 _c
57 648 54 652 54 661 _c
56 669 58 675 60 678 _c
61 681 65 683 71 683 _c
309 683 _l
315 683 319 678 319 670 _c
316 655 312 648 306 648 _c
252 648 224 638 221 620 _c
257 115 _l
507 551 _l
502 626 _l
500 636 492 642 480 644 _c
467 646 452 648 434 648 _c
}_e{427 648 424 652 424 661 _c
426 669 427 675 429 678 _c
430 681 434 683 441 683 _c
679 683 _l
685 683 689 678 689 670 _c
688 668 687 665 687 661 _c
686 657 685 654 683 652 _c
681 649 679 648 676 648 _c
622 648 593 638 591 620 _c
591 613 _l
627 115 _l
899 590 _l
903 597 905 604 905 611 _c
905 624 898 633 885 639 _c
871 645 856 648 840 648 _c
833 648 830 652 830 661 _c
}_e{831 666 832 670 833 673 _c
833 676 835 678 837 680 _c
839 682 843 683 847 683 _c
1038 683 _l
1044 683 1048 678 1048 670 _c
1047 668 1046 665 1045 661 _c
1044 657 1043 653 1041 651 _c
1039 649 1037 648 1035 648 _c
987 648 951 626 927 583 _c
925 581 924 580 924 580 _c
585 -10 _l
581 -17 576 -21 568 -21 _c
560 -21 _l
552 -21 548 -17 548 -10 _c
510 504 _l
216 -10 _l
}_e{210 -17 204 -21 198 -21 _c
190 -21 _l
182 -21 178 -17 178 -10 _c
_cl}_e}_d
/G{{786 0 51 -21 761 705 _sc
146 219 _m
146 177 154 141 170 110 _c
186 79 210 55 241 38 _c
272 21 308 13 349 13 _c
389 13 426 22 462 41 _c
498 59 520 86 530 122 _c
552 208 _l
552 210 552 212 552 214 _c
552 216 553 217 553 219 _c
553 225 551 229 547 231 _c
530 235 497 238 447 238 _c
440 238 437 242 437 251 _c
439 259 440 264 442 268 _c
444 271 448 273 454 273 _c
}_e{712 273 _l
718 273 722 268 722 260 _c
722 258 721 255 720 251 _c
719 247 718 244 716 242 _c
714 239 712 238 709 238 _c
687 238 670 236 660 232 _c
650 228 643 219 639 204 _c
617 118 _l
589 7 _l
587 2 584 0 580 0 _c
574 0 566 7 556 22 _c
546 37 538 50 534 60 _c
511 32 480 12 441 -1 _c
402 -14 362 -21 322 -21 _c
270 -21 223 -9 182 13 _c
}_e{140 36 108 68 85 110 _c
62 152 51 199 51 252 _c
51 308 63 363 88 418 _c
112 472 146 521 189 564 _c
231 607 280 641 334 667 _c
388 692 443 705 499 705 _c
521 705 542 701 562 695 _c
582 688 601 678 619 664 _c
637 650 651 635 662 617 _c
741 703 _l
741 704 742 705 746 705 _c
752 705 _l
754 705 756 704 758 702 _c
760 700 761 697 761 695 _c
693 425 _l
}_e{693 420 690 418 685 418 _c
667 418 _l
661 418 659 421 659 429 _c
661 443 663 461 663 481 _c
663 513 657 544 646 573 _c
635 602 618 625 595 643 _c
571 661 543 670 509 670 _c
455 670 405 656 360 629 _c
314 601 276 565 244 521 _c
212 477 188 428 171 374 _c
154 320 146 269 146 219 _c
_cl}_e}_d
end readonly def

/BuildGlyph
 {exch begin
 CharStrings exch
 2 copy known not{pop /.notdef}if
 true 3 1 roll get exec
 end}_d

/BuildChar {
 1 index /Encoding get exch get
 1 index /BuildGlyph get exec
}_d

FontName currentdict end definefont pop
%!PS-Adobe-3.0 Resource-Font
%%Title: Bitstream Vera Sans
%%Copyright: Copyright (c) 2003 by Bitstream, Inc. All Rights Reserved.
%%Creator: Converted from TrueType to type 3 by PPR
25 dict begin
/_d{bind def}bind def
/_m{moveto}_d
/_l{lineto}_d
/_cl{closepath eofill}_d
/_c{curveto}_d
/_sc{7 -1 roll{setcachedevice}{pop pop pop pop pop pop}ifelse}_d
/_e{exec}_d
/FontName /BitstreamVeraSans-Roman def
/PaintType 0 def
/FontMatrix[.001 0 0 .001 0 0]def
/FontBBox[-183 -236 1287 928]def
/FontType 3 def
/Encoding [ /space /parenleft /parenright /zero /one /two /three /four /five /six /seven /at /B /E /P /Q /S /V /e /g /n /r /y /minus ] def
/FontInfo 10 dict dup begin
/FamilyName (Bitstream Vera Sans) def
/FullName (Bitstream Vera Sans) def
/Notice (Copyright (c) 2003 by Bitstream, Inc. All Rights Reserved. Bitstream Vera is a trademark of Bitstream, Inc.) def
/Weight (Roman) def
/Version (Release 1.10) def
/ItalicAngle 0.0 def
/isFixedPitch false def
/UnderlinePosition -213 def
/UnderlineThickness 143 def
end readonly def
/CharStrings 24 dict dup begin
/space{318 0 0 0 0 0 _sc
}_d
/parenleft{390 0 86 -131 310 759 _sc
310 759 _m
266 683 234 609 213 536 _c
191 463 181 389 181 314 _c
181 238 191 164 213 91 _c
234 17 266 -56 310 -131 _c
232 -131 _l
183 -54 146 20 122 94 _c
98 168 86 241 86 314 _c
86 386 98 459 122 533 _c
146 607 182 682 232 759 _c
310 759 _l
_cl}_d
/parenright{390 0 80 -131 304 759 _sc
80 759 _m
158 759 _l
206 682 243 607 267 533 _c
291 459 304 386 304 314 _c
304 241 291 168 267 94 _c
243 20 206 -54 158 -131 _c
80 -131 _l
123 -56 155 17 177 91 _c
198 164 209 238 209 314 _c
209 389 198 463 177 536 _c
155 609 123 683 80 759 _c
_cl}_d
/zero{636 0 66 -13 570 742 _sc
318 664 _m
267 664 229 639 203 589 _c
177 539 165 464 165 364 _c
165 264 177 189 203 139 _c
229 89 267 64 318 64 _c
369 64 407 89 433 139 _c
458 189 471 264 471 364 _c
471 464 458 539 433 589 _c
407 639 369 664 318 664 _c
318 742 _m
399 742 461 709 505 645 _c
548 580 570 486 570 364 _c
570 241 548 147 505 83 _c
461 19 399 -13 318 -13 _c
236 -13 173 19 130 83 _c
87 147 66 241 66 364 _c
66 486 87 580 130 645 _c
173 709 236 742 318 742 _c
_cl}_d
/one{636 0 110 0 544 729 _sc
124 83 _m
285 83 _l
285 639 _l
110 604 _l
110 694 _l
284 729 _l
383 729 _l
383 83 _l
544 83 _l
544 0 _l
124 0 _l
124 83 _l
_cl}_d
/two{{636 0 73 0 536 742 _sc
192 83 _m
536 83 _l
536 0 _l
73 0 _l
73 83 _l
110 121 161 173 226 239 _c
290 304 331 346 348 365 _c
380 400 402 430 414 455 _c
426 479 433 504 433 528 _c
433 566 419 598 392 622 _c
365 646 330 659 286 659 _c
255 659 222 653 188 643 _c
154 632 117 616 78 594 _c
78 694 _l
118 710 155 722 189 730 _c
223 738 255 742 284 742 _c
}_e{359 742 419 723 464 685 _c
509 647 532 597 532 534 _c
532 504 526 475 515 449 _c
504 422 484 390 454 354 _c
446 344 420 317 376 272 _c
332 227 271 164 192 83 _c
_cl}_e}_d
/three{{636 0 76 -13 556 742 _sc
406 393 _m
453 383 490 362 516 330 _c
542 298 556 258 556 212 _c
556 140 531 84 482 45 _c
432 6 362 -13 271 -13 _c
240 -13 208 -10 176 -4 _c
144 1 110 10 76 22 _c
76 117 _l
103 101 133 89 166 81 _c
198 73 232 69 268 69 _c
330 69 377 81 409 105 _c
441 129 458 165 458 212 _c
458 254 443 288 413 312 _c
383 336 341 349 287 349 _c
}_e{202 349 _l
202 430 _l
291 430 _l
339 430 376 439 402 459 _c
428 478 441 506 441 543 _c
441 580 427 609 401 629 _c
374 649 336 659 287 659 _c
260 659 231 656 200 650 _c
169 644 135 635 98 623 _c
98 711 _l
135 721 170 729 203 734 _c
235 739 266 742 296 742 _c
370 742 429 725 473 691 _c
517 657 539 611 539 553 _c
539 513 527 479 504 451 _c
481 423 448 403 406 393 _c
_cl}_e}_d
/four{636 0 49 0 580 729 _sc
378 643 _m
129 254 _l
378 254 _l
378 643 _l
352 729 _m
476 729 _l
476 254 _l
580 254 _l
580 172 _l
476 172 _l
476 0 _l
378 0 _l
378 172 _l
49 172 _l
49 267 _l
352 729 _l
_cl}_d
/five{{636 0 77 -13 549 729 _sc
108 729 _m
495 729 _l
495 646 _l
198 646 _l
198 467 _l
212 472 227 476 241 478 _c
255 480 270 482 284 482 _c
365 482 429 459 477 415 _c
525 370 549 310 549 234 _c
549 155 524 94 475 51 _c
426 8 357 -13 269 -13 _c
238 -13 207 -10 175 -6 _c
143 -1 111 6 77 17 _c
77 116 _l
106 100 136 88 168 80 _c
199 72 232 69 267 69 _c
}_e{323 69 368 83 401 113 _c
433 143 450 183 450 234 _c
450 284 433 324 401 354 _c
368 384 323 399 267 399 _c
241 399 214 396 188 390 _c
162 384 135 375 108 363 _c
108 729 _l
_cl}_e}_d
/six{{636 0 70 -13 573 742 _sc
330 404 _m
286 404 251 388 225 358 _c
199 328 186 286 186 234 _c
186 181 199 139 225 109 _c
251 79 286 64 330 64 _c
374 64 409 79 435 109 _c
461 139 474 181 474 234 _c
474 286 461 328 435 358 _c
409 388 374 404 330 404 _c
526 713 _m
526 623 _l
501 635 476 644 451 650 _c
425 656 400 659 376 659 _c
310 659 260 637 226 593 _c
}_e{192 549 172 482 168 394 _c
187 422 211 444 240 459 _c
269 474 301 482 336 482 _c
409 482 467 459 509 415 _c
551 371 573 310 573 234 _c
573 159 550 99 506 54 _c
462 9 403 -13 330 -13 _c
246 -13 181 19 137 83 _c
92 147 70 241 70 364 _c
70 479 97 571 152 639 _c
206 707 280 742 372 742 _c
396 742 421 739 447 735 _c
472 730 498 723 526 713 _c
_cl}_e}_d
/seven{636 0 82 0 551 729 _sc
82 729 _m
551 729 _l
551 687 _l
286 0 _l
183 0 _l
432 646 _l
82 646 _l
82 729 _l
_cl}_d
/at{{1000 0 66 -173 930 704 _sc
372 262 _m
372 215 383 178 406 152 _c
429 126 461 113 502 113 _c
542 113 573 126 596 153 _c
619 179 631 216 631 262 _c
631 308 619 344 596 371 _c
572 397 541 411 501 411 _c
461 411 430 397 407 371 _c
383 344 372 308 372 262 _c
638 116 _m
618 91 596 73 571 61 _c
545 49 516 43 483 43 _c
427 43 381 63 346 104 _c
311 144 294 197 294 262 _c
}_e{294 327 311 380 346 421 _c
381 461 427 482 483 482 _c
516 482 545 475 571 463 _c
596 451 618 432 638 408 _c
638 472 _l
708 472 _l
708 113 _l
755 120 792 142 819 178 _c
846 214 860 261 860 319 _c
860 353 854 386 844 417 _c
834 447 818 476 798 502 _c
764 544 722 577 674 600 _c
625 622 572 634 515 634 _c
475 634 436 628 400 618 _c
363 607 329 591 298 571 _c
}_e{246 537 206 494 178 440 _c
149 386 135 327 135 265 _c
135 213 144 165 163 120 _c
181 74 208 34 244 0 _c
278 -33 317 -58 362 -76 _c
407 -94 455 -103 507 -103 _c
549 -103 590 -96 630 -82 _c
670 -68 708 -47 742 -21 _c
786 -75 _l
745 -107 701 -131 653 -148 _c
605 -164 556 -173 507 -173 _c
447 -173 390 -162 336 -141 _c
282 -119 235 -88 194 -48 _c
152 -8 120 38 98 92 _c
}_e{76 146 66 203 66 265 _c
66 324 77 380 99 434 _c
121 488 152 535 194 576 _c
236 617 284 649 339 671 _c
394 693 452 704 514 704 _c
583 704 647 689 706 661 _c
765 633 815 593 855 541 _c
879 509 898 474 911 437 _c
923 399 930 361 930 321 _c
930 235 904 167 852 118 _c
800 68 729 43 638 41 _c
638 116 _l
_cl}_e}_d
/B{{686 0 98 0 615 729 _sc
197 348 _m
197 81 _l
355 81 _l
408 81 447 92 473 114 _c
498 136 511 169 511 215 _c
511 260 498 293 473 315 _c
447 337 408 348 355 348 _c
197 348 _l
197 648 _m
197 428 _l
343 428 _l
391 428 426 437 450 455 _c
474 473 486 500 486 538 _c
486 574 474 602 450 620 _c
426 638 391 648 343 648 _c
197 648 _l
98 729 _m
350 729 _l
}_e{425 729 483 713 524 682 _c
564 650 585 606 585 549 _c
585 504 574 468 553 442 _c
532 416 502 399 462 393 _c
510 382 548 360 575 327 _c
601 294 615 253 615 204 _c
615 138 592 88 548 53 _c
504 17 441 0 360 0 _c
98 0 _l
98 729 _l
_cl}_e}_d
/E{632 0 98 0 568 729 _sc
98 729 _m
559 729 _l
559 646 _l
197 646 _l
197 430 _l
544 430 _l
544 347 _l
197 347 _l
197 83 _l
568 83 _l
568 0 _l
98 0 _l
98 729 _l
_cl}_d
/P{603 0 98 0 569 729 _sc
197 648 _m
197 374 _l
321 374 _l
367 374 402 385 427 409 _c
452 433 465 467 465 511 _c
465 555 452 588 427 612 _c
402 636 367 648 321 648 _c
197 648 _l
98 729 _m
321 729 _l
402 729 464 710 506 673 _c
548 636 569 582 569 511 _c
569 439 548 384 506 348 _c
464 311 402 293 321 293 _c
197 293 _l
197 0 _l
98 0 _l
98 729 _l
_cl}_d
/Q{{787 0 56 -128 731 742 _sc
394 662 _m
322 662 265 635 223 582 _c
181 528 160 456 160 364 _c
160 272 181 199 223 146 _c
265 92 322 66 394 66 _c
465 66 522 92 564 146 _c
606 199 627 272 627 364 _c
627 456 606 528 564 582 _c
522 635 465 662 394 662 _c
532 13 _m
662 -128 _l
543 -128 _l
435 -11 _l
424 -11 416 -12 410 -12 _c
404 -12 399 -13 394 -13 _c
291 -13 209 21 148 89 _c
}_e{86 157 56 248 56 364 _c
56 479 86 571 148 639 _c
209 707 291 742 394 742 _c
496 742 577 707 639 639 _c
700 571 731 479 731 364 _c
731 279 714 206 680 146 _c
646 86 596 41 532 13 _c
_cl}_e}_d
/S{{635 0 66 -13 579 742 _sc
535 705 _m
535 609 _l
497 627 462 640 429 649 _c
395 657 363 662 333 662 _c
279 662 237 651 208 631 _c
179 610 165 580 165 542 _c
165 510 174 485 194 469 _c
213 452 250 439 304 429 _c
364 417 _l
437 403 491 378 526 343 _c
561 307 579 260 579 201 _c
579 130 555 77 508 41 _c
460 5 391 -13 300 -13 _c
265 -13 228 -9 189 -2 _c
}_e{150 5 110 16 69 32 _c
69 134 _l
109 111 148 94 186 83 _c
224 71 262 66 300 66 _c
356 66 399 77 430 99 _c
460 121 476 152 476 194 _c
476 230 465 258 443 278 _c
421 298 385 313 335 323 _c
275 335 _l
201 349 148 372 115 404 _c
82 435 66 478 66 534 _c
66 598 88 649 134 686 _c
179 723 242 742 322 742 _c
356 742 390 739 426 733 _c
461 727 497 717 535 705 _c
}_e{_cl}_e}_d
/V{684 0 8 0 676 729 _sc
286 0 _m
8 729 _l
111 729 _l
342 115 _l
573 729 _l
676 729 _l
398 0 _l
286 0 _l
_cl}_d
/e{{615 0 55 -13 562 560 _sc
562 296 _m
562 252 _l
149 252 _l
153 190 171 142 205 110 _c
238 78 284 62 344 62 _c
378 62 412 66 444 74 _c
476 82 509 95 541 113 _c
541 28 _l
509 14 476 3 442 -3 _c
408 -9 373 -13 339 -13 _c
251 -13 182 12 131 62 _c
80 112 55 181 55 268 _c
55 357 79 428 127 481 _c
175 533 241 560 323 560 _c
397 560 455 536 498 489 _c
}_e{540 441 562 377 562 296 _c
472 322 _m
471 371 457 410 431 440 _c
404 469 368 484 324 484 _c
274 484 234 469 204 441 _c
174 413 156 373 152 322 _c
472 322 _l
_cl}_e}_d
/g{{635 0 55 -207 544 560 _sc
454 280 _m
454 344 440 395 414 431 _c
387 467 349 485 301 485 _c
253 485 215 467 188 431 _c
161 395 148 344 148 280 _c
148 215 161 165 188 129 _c
215 93 253 75 301 75 _c
349 75 387 93 414 129 _c
440 165 454 215 454 280 _c
544 68 _m
544 -24 523 -93 482 -139 _c
440 -184 377 -207 292 -207 _c
260 -207 231 -204 203 -200 _c
175 -195 147 -188 121 -178 _c
}_e{121 -91 _l
147 -105 173 -115 199 -122 _c
225 -129 251 -133 278 -133 _c
336 -133 380 -117 410 -87 _c
439 -56 454 -10 454 52 _c
454 96 _l
435 64 411 40 382 24 _c
353 8 319 0 279 0 _c
211 0 157 25 116 76 _c
75 127 55 195 55 280 _c
55 364 75 432 116 483 _c
157 534 211 560 279 560 _c
319 560 353 552 382 536 _c
411 520 435 496 454 464 _c
454 547 _l
544 547 _l
}_e{544 68 _l
_cl}_e}_d
/n{634 0 91 0 549 560 _sc
549 330 _m
549 0 _l
459 0 _l
459 327 _l
459 379 448 417 428 443 _c
408 469 378 482 338 482 _c
289 482 251 466 223 435 _c
195 404 181 362 181 309 _c
181 0 _l
91 0 _l
91 547 _l
181 547 _l
181 462 _l
202 494 227 519 257 535 _c
286 551 320 560 358 560 _c
420 560 468 540 500 501 _c
532 462 549 405 549 330 _c
_cl}_d
/r{411 0 91 0 411 560 _sc
411 463 _m
401 469 390 473 378 476 _c
366 478 353 480 339 480 _c
288 480 249 463 222 430 _c
194 397 181 350 181 288 _c
181 0 _l
91 0 _l
91 547 _l
181 547 _l
181 462 _l
199 495 224 520 254 536 _c
284 552 321 560 365 560 _c
371 560 378 559 386 559 _c
393 558 401 557 411 555 _c
411 463 _l
_cl}_d
/y{592 0 30 -207 562 547 _sc
322 -50 _m
296 -114 271 -157 247 -177 _c
223 -197 191 -207 151 -207 _c
79 -207 _l
79 -132 _l
132 -132 _l
156 -132 175 -126 189 -114 _c
203 -102 218 -75 235 -31 _c
251 9 _l
30 547 _l
125 547 _l
296 119 _l
467 547 _l
562 547 _l
322 -50 _l
_cl}_d
/minus{838 0 106 272 732 355 _sc
106 355 _m
732 355 _l
732 272 _l
106 272 _l
106 355 _l
_cl}_d
end readonly def

/BuildGlyph
 {exch begin
 CharStrings exch
 2 copy known not{pop /.notdef}if
 true 3 1 roll get exec
 end}_d

/BuildChar {
 1 index /Encoding get exch get
 1 index /BuildGlyph get exec
}_d

FontName currentdict end definefont pop
end
%%EndProlog
mpldict begin
185.528 299.622 translate
240.945 192.756 0 0 clipbox
gsave
0 0 m
240.945 0 l
240.945 192.756 l
0 192.756 l
cl
1.000 setgray
fill
grestore
gsave
38.6475 15.46 m
227.985 15.46 l
227.985 177.296 l
38.6475 177.296 l
cl
1.000 setgray
fill
grestore
/p0_0 {
newpath
translate
46.221 88.7717 m
68.9415 88.7717 l
} bind def
0.800 setlinewidth
1 setlinejoin
0 setlinecap
[] 0 setdash
0.863 0.078 0.235 setrgbcolor
gsave
189.3 161.8 38.65 15.46 clipbox
0 0 p0_0
stroke
grestore
/p1_0 {
newpath
translate

} bind def
0.000 setgray
gsave
189.3 161.8 38.65 15.46 clipbox
0 0 p1_0
stroke
grestore
/p2_0 {
newpath
translate
84.0885 84.8876 m
106.809 84.8876 l
} bind def
0.863 0.078 0.235 setrgbcolor
gsave
189.3 161.8 38.65 15.46 clipbox
0 0 p2_0
stroke
grestore
/p3_0 {
newpath
translate

} bind def
0.000 setgray
gsave
189.3 161.8 38.65 15.46 clipbox
0 0 p3_0
stroke
grestore
/p4_0 {
newpath
translate
121.956 80.1944 m
144.676 80.1944 l
} bind def
0.863 0.078 0.235 setrgbcolor
gsave
189.3 161.8 38.65 15.46 clipbox
0 0 p4_0
stroke
grestore
/p5_0 {
newpath
translate
133.316 78.7378 m
133.316 81.6509 l
} bind def
0.000 setgray
gsave
189.3 161.8 38.65 15.46 clipbox
0 0 p5_0
stroke
grestore
/p6_0 {
newpath
translate
159.823 83.7548 m
182.544 83.7548 l
} bind def
0.863 0.078 0.235 setrgbcolor
gsave
189.3 161.8 38.65 15.46 clipbox
0 0 p6_0
stroke
grestore
/p7_0 {
newpath
translate
171.184 81.1654 m
171.184 86.3441 l
} bind def
0.000 setgray
gsave
189.3 161.8 38.65 15.46 clipbox
0 0 p7_0
stroke
grestore
/p8_0 {
newpath
translate
197.691 80.3562 m
220.411 80.3562 l
} bind def
0.863 0.078 0.235 setrgbcolor
gsave
189.3 161.8 38.65 15.46 clipbox
0 0 p8_0
stroke
grestore
/p9_0 {
newpath
translate
209.051 78.7378 m
209.051 81.9746 l
} bind def
0.000 setgray
gsave
189.3 161.8 38.65 15.46 clipbox
0 0 p9_0
stroke
grestore
1.000 setlinewidth
2 setlinecap
gsave
189.3 161.8 38.65 15.46 clipbox
38.6475 64.0108 m
76.496 64.0108 l
76.6096 30.5107 l
114.364 30.5107 l
114.477 38.117 l
152.231 38.117 l
152.345 30.0252 l
190.098 30.0252 l
190.212 18.0494 l
227.985 18.0494 l
227.985 18.0494 l
stroke
grestore
gsave
189.3 161.8 38.65 15.46 clipbox
38.6475 139.912 m
76.496 139.912 l
76.6096 156.743 l
114.364 156.743 l
114.477 152.211 l
152.231 152.211 l
152.345 161.112 l
190.098 161.112 l
190.212 163.054 l
227.985 163.054 l
227.985 163.054 l
stroke
grestore
0.100 setlinewidth
0 setlinecap
gsave
189.3 161.8 38.65 15.46 clipbox
/o {
gsave
newpath
translate
0.1 setlinewidth
1 setlinejoin
0 setlinecap
3 -1.83697e-16 m
-3 1.83697e-16 l
gsave
0.000 setgray
fill
grestore
stroke
grestore
} bind def
grestore
gsave
189.3 161.8 38.65 15.46 clipbox
/o {
gsave
newpath
translate
0.1 setlinewidth
1 setlinejoin
0 setlinecap
3 -1.83697e-16 m
-3 1.83697e-16 l
gsave
0.000 setgray
fill
grestore
stroke
grestore
} bind def
grestore
0.800 setlinewidth
2 setlinecap
0.000 0.000 1.000 setrgbcolor
gsave
189.3 161.8 38.65 15.46 clipbox
57.5812 88.7717 m
stroke
grestore
0.100 setlinewidth
0 setlinecap
0.000 setgray
gsave
189.3 161.8 38.65 15.46 clipbox
/o {
gsave
newpath
translate
0.1 setlinewidth
1 setlinejoin
0 setlinecap
0 -1 m
0.265203 -1 0.51958 -0.894634 0.707107 -0.707107 c
0.894634 -0.51958 1 -0.265203 1 0 c
1 0.265203 0.894634 0.51958 0.707107 0.707107 c
0.51958 0.894634 0.265203 1 0 1 c
-0.265203 1 -0.51958 0.894634 -0.707107 0.707107 c
-0.894634 0.51958 -1 0.265203 -1 0 c
-1 -0.265203 -0.894634 -0.51958 -0.707107 -0.707107 c
-0.51958 -0.894634 -0.265203 -1 0 -1 c
cl
gsave
0.863 0.078 0.235 setrgbcolor
fill
grestore
stroke
grestore
} bind def
57.5812 88.7717 o
grestore
gsave
189.3 161.8 38.65 15.46 clipbox
/o {
gsave
newpath
translate
0.1 setlinewidth
1 setlinejoin
0 setlinecap
3 -1.83697e-16 m
-3 1.83697e-16 l
gsave
0.000 setgray
fill
grestore
stroke
grestore
} bind def
grestore
gsave
189.3 161.8 38.65 15.46 clipbox
/o {
gsave
newpath
translate
0.1 setlinewidth
1 setlinejoin
0 setlinecap
3 -1.83697e-16 m
-3 1.83697e-16 l
gsave
0.000 setgray
fill
grestore
stroke
grestore
} bind def
grestore
0.800 setlinewidth
2 setlinecap
0.000 0.500 0.000 setrgbcolor
gsave
189.3 161.8 38.65 15.46 clipbox
95.4487 84.8876 m
stroke
grestore
0.100 setlinewidth
0 setlinecap
0.000 setgray
gsave
189.3 161.8 38.65 15.46 clipbox
/o {
gsave
newpath
translate
0.1 setlinewidth
1 setlinejoin
0 setlinecap
0 -1 m
0.265203 -1 0.51958 -0.894634 0.707107 -0.707107 c
0.894634 -0.51958 1 -0.265203 1 0 c
1 0.265203 0.894634 0.51958 0.707107 0.707107 c
0.51958 0.894634 0.265203 1 0 1 c
-0.265203 1 -0.51958 0.894634 -0.707107 0.707107 c
-0.894634 0.51958 -1 0.265203 -1 0 c
-1 -0.265203 -0.894634 -0.51958 -0.707107 -0.707107 c
-0.51958 -0.894634 -0.265203 -1 0 -1 c
cl
gsave
0.863 0.078 0.235 setrgbcolor
fill
grestore
stroke
grestore
} bind def
95.4487 84.8876 o
grestore
gsave
189.3 161.8 38.65 15.46 clipbox
/o {
gsave
newpath
translate
0.1 setlinewidth
1 setlinejoin
0 setlinecap
3 -1.83697e-16 m
-3 1.83697e-16 l
gsave
0.000 setgray
fill
grestore
stroke
grestore
} bind def
133.316 78.7378 o
grestore
gsave
189.3 161.8 38.65 15.46 clipbox
/o {
gsave
newpath
translate
0.1 setlinewidth
1 setlinejoin
0 setlinecap
3 -1.83697e-16 m
-3 1.83697e-16 l
gsave
0.000 setgray
fill
grestore
stroke
grestore
} bind def
133.316 81.6509 o
grestore
0.800 setlinewidth
2 setlinecap
1.000 0.000 0.000 setrgbcolor
gsave
189.3 161.8 38.65 15.46 clipbox
133.316 80.1944 m
stroke
grestore
0.100 setlinewidth
0 setlinecap
0.000 setgray
gsave
189.3 161.8 38.65 15.46 clipbox
/o {
gsave
newpath
translate
0.1 setlinewidth
1 setlinejoin
0 setlinecap
0 -1 m
0.265203 -1 0.51958 -0.894634 0.707107 -0.707107 c
0.894634 -0.51958 1 -0.265203 1 0 c
1 0.265203 0.894634 0.51958 0.707107 0.707107 c
0.51958 0.894634 0.265203 1 0 1 c
-0.265203 1 -0.51958 0.894634 -0.707107 0.707107 c
-0.894634 0.51958 -1 0.265203 -1 0 c
-1 -0.265203 -0.894634 -0.51958 -0.707107 -0.707107 c
-0.51958 -0.894634 -0.265203 -1 0 -1 c
cl
gsave
0.863 0.078 0.235 setrgbcolor
fill
grestore
stroke
grestore
} bind def
133.316 80.1944 o
grestore
gsave
189.3 161.8 38.65 15.46 clipbox
/o {
gsave
newpath
translate
0.1 setlinewidth
1 setlinejoin
0 setlinecap
3 -1.83697e-16 m
-3 1.83697e-16 l
gsave
0.000 setgray
fill
grestore
stroke
grestore
} bind def
171.184 81.1654 o
grestore
gsave
189.3 161.8 38.65 15.46 clipbox
/o {
gsave
newpath
translate
0.1 setlinewidth
1 setlinejoin
0 setlinecap
3 -1.83697e-16 m
-3 1.83697e-16 l
gsave
0.000 setgray
fill
grestore
stroke
grestore
} bind def
171.184 86.3441 o
grestore
0.800 setlinewidth
2 setlinecap
0.000 0.750 0.750 setrgbcolor
gsave
189.3 161.8 38.65 15.46 clipbox
171.184 83.7548 m
stroke
grestore
0.100 setlinewidth
0 setlinecap
0.000 setgray
gsave
189.3 161.8 38.65 15.46 clipbox
/o {
gsave
newpath
translate
0.1 setlinewidth
1 setlinejoin
0 setlinecap
0 -1 m
0.265203 -1 0.51958 -0.894634 0.707107 -0.707107 c
0.894634 -0.51958 1 -0.265203 1 0 c
1 0.265203 0.894634 0.51958 0.707107 0.707107 c
0.51958 0.894634 0.265203 1 0 1 c
-0.265203 1 -0.51958 0.894634 -0.707107 0.707107 c
-0.894634 0.51958 -1 0.265203 -1 0 c
-1 -0.265203 -0.894634 -0.51958 -0.707107 -0.707107 c
-0.51958 -0.894634 -0.265203 -1 0 -1 c
cl
gsave
0.863 0.078 0.235 setrgbcolor
fill
grestore
stroke
grestore
} bind def
171.184 83.7548 o
grestore
gsave
189.3 161.8 38.65 15.46 clipbox
/o {
gsave
newpath
translate
0.1 setlinewidth
1 setlinejoin
0 setlinecap
3 -1.83697e-16 m
-3 1.83697e-16 l
gsave
0.000 setgray
fill
grestore
stroke
grestore
} bind def
209.051 78.7378 o
grestore
gsave
189.3 161.8 38.65 15.46 clipbox
/o {
gsave
newpath
translate
0.1 setlinewidth
1 setlinejoin
0 setlinecap
3 -1.83697e-16 m
-3 1.83697e-16 l
gsave
0.000 setgray
fill
grestore
stroke
grestore
} bind def
209.051 81.9746 o
grestore
0.800 setlinewidth
2 setlinecap
0.750 0.000 0.750 setrgbcolor
gsave
189.3 161.8 38.65 15.46 clipbox
209.051 80.3562 m
stroke
grestore
0.100 setlinewidth
0 setlinecap
0.000 setgray
gsave
189.3 161.8 38.65 15.46 clipbox
/o {
gsave
newpath
translate
0.1 setlinewidth
1 setlinejoin
0 setlinecap
0 -1 m
0.265203 -1 0.51958 -0.894634 0.707107 -0.707107 c
0.894634 -0.51958 1 -0.265203 1 0 c
1 0.265203 0.894634 0.51958 0.707107 0.707107 c
0.51958 0.894634 0.265203 1 0 1 c
-0.265203 1 -0.51958 0.894634 -0.707107 0.707107 c
-0.894634 0.51958 -1 0.265203 -1 0 c
-1 -0.265203 -0.894634 -0.51958 -0.707107 -0.707107 c
-0.51958 -0.894634 -0.265203 -1 0 -1 c
cl
gsave
0.863 0.078 0.235 setrgbcolor
fill
grestore
stroke
grestore
} bind def
209.051 80.3562 o
grestore
0.500 setlinewidth
gsave
/o {
gsave
newpath
translate
0.5 setlinewidth
1 setlinejoin
0 setlinecap
0 0 m
2 0 l
gsave
0.000 setgray
fill
grestore
stroke
grestore
} bind def
38.6475 15.46 o
grestore
gsave
/o {
gsave
newpath
translate
0.5 setlinewidth
1 setlinejoin
0 setlinecap
0 0 m
-2 0 l
gsave
0.000 setgray
fill
grestore
stroke
grestore
} bind def
227.985 15.46 o
grestore
/BitstreamVeraSans-Roman findfont
6.000 scalefont
setfont
gsave
26.913125 13.803750 translate
0.000000 rotate
0.000000 0.000000 m /minus glyphshow
5.027344 0.000000 m /three glyphshow
grestore
gsave
/o {
gsave
newpath
translate
0.5 setlinewidth
1 setlinejoin
0 setlinecap
0 0 m
2 0 l
gsave
0.000 setgray
fill
grestore
stroke
grestore
} bind def
38.6475 31.6436 o
grestore
gsave
/o {
gsave
newpath
translate
0.5 setlinewidth
1 setlinejoin
0 setlinecap
0 0 m
-2 0 l
gsave
0.000 setgray
fill
grestore
stroke
grestore
} bind def
227.985 31.6436 o
grestore
gsave
27.038125 29.987341 translate
0.000000 rotate
0.000000 0.000000 m /minus glyphshow
5.027344 0.000000 m /two glyphshow
grestore
gsave
/o {
gsave
newpath
translate
0.5 setlinewidth
1 setlinejoin
0 setlinecap
0 0 m
2 0 l
gsave
0.000 setgray
fill
grestore
stroke
grestore
} bind def
38.6475 47.8272 o
grestore
gsave
/o {
gsave
newpath
translate
0.5 setlinewidth
1 setlinejoin
0 setlinecap
0 0 m
-2 0 l
gsave
0.000 setgray
fill
grestore
stroke
grestore
} bind def
227.985 47.8272 o
grestore
gsave
26.991250 46.170931 translate
0.000000 rotate
0.000000 0.000000 m /minus glyphshow
5.027344 0.000000 m /one glyphshow
grestore
gsave
/o {
gsave
newpath
translate
0.5 setlinewidth
1 setlinejoin
0 setlinecap
0 0 m
2 0 l
gsave
0.000 setgray
fill
grestore
stroke
grestore
} bind def
38.6475 64.0108 o
grestore
gsave
/o {
gsave
newpath
translate
0.5 setlinewidth
1 setlinejoin
0 setlinecap
0 0 m
-2 0 l
gsave
0.000 setgray
fill
grestore
stroke
grestore
} bind def
227.985 64.0108 o
grestore
gsave
31.616250 62.354522 translate
0.000000 rotate
0.000000 0.000000 m /zero glyphshow
grestore
gsave
/o {
gsave
newpath
translate
0.5 setlinewidth
1 setlinejoin
0 setlinecap
0 0 m
2 0 l
gsave
0.000 setgray
fill
grestore
stroke
grestore
} bind def
38.6475 80.1944 o
grestore
gsave
/o {
gsave
newpath
translate
0.5 setlinewidth
1 setlinejoin
0 setlinecap
0 0 m
-2 0 l
gsave
0.000 setgray
fill
grestore
stroke
grestore
} bind def
227.985 80.1944 o
grestore
gsave
32.038125 78.538112 translate
0.000000 rotate
0.000000 0.000000 m /one glyphshow
grestore
gsave
/o {
gsave
newpath
translate
0.5 setlinewidth
1 setlinejoin
0 setlinecap
0 0 m
2 0 l
gsave
0.000 setgray
fill
grestore
stroke
grestore
} bind def
38.6475 96.378 o
grestore
gsave
/o {
gsave
newpath
translate
0.5 setlinewidth
1 setlinejoin
0 setlinecap
0 0 m
-2 0 l
gsave
0.000 setgray
fill
grestore
stroke
grestore
} bind def
227.985 96.378 o
grestore
gsave
31.866250 94.721703 translate
0.000000 rotate
0.000000 0.000000 m /two glyphshow
grestore
gsave
/o {
gsave
newpath
translate
0.5 setlinewidth
1 setlinejoin
0 setlinecap
0 0 m
2 0 l
gsave
0.000 setgray
fill
grestore
stroke
grestore
} bind def
38.6475 112.562 o
grestore
gsave
/o {
gsave
newpath
translate
0.5 setlinewidth
1 setlinejoin
0 setlinecap
0 0 m
-2 0 l
gsave
0.000 setgray
fill
grestore
stroke
grestore
} bind def
227.985 112.562 o
grestore
gsave
31.756875 110.905293 translate
0.000000 rotate
0.000000 0.000000 m /three glyphshow
grestore
gsave
/o {
gsave
newpath
translate
0.5 setlinewidth
1 setlinejoin
0 setlinecap
0 0 m
2 0 l
gsave
0.000 setgray
fill
grestore
stroke
grestore
} bind def
38.6475 128.745 o
grestore
gsave
/o {
gsave
newpath
translate
0.5 setlinewidth
1 setlinejoin
0 setlinecap
0 0 m
-2 0 l
gsave
0.000 setgray
fill
grestore
stroke
grestore
} bind def
227.985 128.745 o
grestore
gsave
31.460000 127.088884 translate
0.000000 rotate
0.000000 0.000000 m /four glyphshow
grestore
gsave
/o {
gsave
newpath
translate
0.5 setlinewidth
1 setlinejoin
0 setlinecap
0 0 m
2 0 l
gsave
0.000 setgray
fill
grestore
stroke
grestore
} bind def
38.6475 144.929 o
grestore
gsave
/o {
gsave
newpath
translate
0.5 setlinewidth
1 setlinejoin
0 setlinecap
0 0 m
-2 0 l
gsave
0.000 setgray
fill
grestore
stroke
grestore
} bind def
227.985 144.929 o
grestore
gsave
31.819375 143.272474 translate
0.000000 rotate
0.000000 0.000000 m /five glyphshow
grestore
gsave
/o {
gsave
newpath
translate
0.5 setlinewidth
1 setlinejoin
0 setlinecap
0 0 m
2 0 l
gsave
0.000 setgray
fill
grestore
stroke
grestore
} bind def
38.6475 161.112 o
grestore
gsave
/o {
gsave
newpath
translate
0.5 setlinewidth
1 setlinejoin
0 setlinecap
0 0 m
-2 0 l
gsave
0.000 setgray
fill
grestore
stroke
grestore
} bind def
227.985 161.112 o
grestore
gsave
31.631875 159.456065 translate
0.000000 rotate
0.000000 0.000000 m /six glyphshow
grestore
gsave
/o {
gsave
newpath
translate
0.5 setlinewidth
1 setlinejoin
0 setlinecap
0 0 m
2 0 l
gsave
0.000 setgray
fill
grestore
stroke
grestore
} bind def
38.6475 177.296 o
grestore
gsave
/o {
gsave
newpath
translate
0.5 setlinewidth
1 setlinejoin
0 setlinecap
0 0 m
-2 0 l
gsave
0.000 setgray
fill
grestore
stroke
grestore
} bind def
227.985 177.296 o
grestore
gsave
31.835000 175.639656 translate
0.000000 rotate
0.000000 0.000000 m /seven glyphshow
grestore
gsave
/o {
gsave
newpath
translate
0.5 setlinewidth
1 setlinejoin
0 setlinecap
0 0 m
1 0 l
gsave
0.000 setgray
fill
grestore
stroke
grestore
} bind def
38.6475 15.46 o
grestore
gsave
/o {
gsave
newpath
translate
0.5 setlinewidth
1 setlinejoin
0 setlinecap
0 0 m
-1 0 l
gsave
0.000 setgray
fill
grestore
stroke
grestore
} bind def
227.985 15.46 o
grestore
gsave
/o {
gsave
newpath
translate
0.5 setlinewidth
1 setlinejoin
0 setlinecap
0 0 m
1 0 l
gsave
0.000 setgray
fill
grestore
stroke
grestore
} bind def
38.6475 23.5518 o
grestore
gsave
/o {
gsave
newpath
translate
0.5 setlinewidth
1 setlinejoin
0 setlinecap
0 0 m
-1 0 l
gsave
0.000 setgray
fill
grestore
stroke
grestore
} bind def
227.985 23.5518 o
grestore
gsave
/o {
gsave
newpath
translate
0.5 setlinewidth
1 setlinejoin
0 setlinecap
0 0 m
1 0 l
gsave
0.000 setgray
fill
grestore
stroke
grestore
} bind def
38.6475 31.6436 o
grestore
gsave
/o {
gsave
newpath
translate
0.5 setlinewidth
1 setlinejoin
0 setlinecap
0 0 m
-1 0 l
gsave
0.000 setgray
fill
grestore
stroke
grestore
} bind def
227.985 31.6436 o
grestore
gsave
/o {
gsave
newpath
translate
0.5 setlinewidth
1 setlinejoin
0 setlinecap
0 0 m
1 0 l
gsave
0.000 setgray
fill
grestore
stroke
grestore
} bind def
38.6475 39.7354 o
grestore
gsave
/o {
gsave
newpath
translate
0.5 setlinewidth
1 setlinejoin
0 setlinecap
0 0 m
-1 0 l
gsave
0.000 setgray
fill
grestore
stroke
grestore
} bind def
227.985 39.7354 o
grestore
gsave
/o {
gsave
newpath
translate
0.5 setlinewidth
1 setlinejoin
0 setlinecap
0 0 m
1 0 l
gsave
0.000 setgray
fill
grestore
stroke
grestore
} bind def
38.6475 47.8272 o
grestore
gsave
/o {
gsave
newpath
translate
0.5 setlinewidth
1 setlinejoin
0 setlinecap
0 0 m
-1 0 l
gsave
0.000 setgray
fill
grestore
stroke
grestore
} bind def
227.985 47.8272 o
grestore
gsave
/o {
gsave
newpath
translate
0.5 setlinewidth
1 setlinejoin
0 setlinecap
0 0 m
1 0 l
gsave
0.000 setgray
fill
grestore
stroke
grestore
} bind def
38.6475 55.919 o
grestore
gsave
/o {
gsave
newpath
translate
0.5 setlinewidth
1 setlinejoin
0 setlinecap
0 0 m
-1 0 l
gsave
0.000 setgray
fill
grestore
stroke
grestore
} bind def
227.985 55.919 o
grestore
gsave
/o {
gsave
newpath
translate
0.5 setlinewidth
1 setlinejoin
0 setlinecap
0 0 m
1 0 l
gsave
0.000 setgray
fill
grestore
stroke
grestore
} bind def
38.6475 64.0108 o
grestore
gsave
/o {
gsave
newpath
translate
0.5 setlinewidth
1 setlinejoin
0 setlinecap
0 0 m
-1 0 l
gsave
0.000 setgray
fill
grestore
stroke
grestore
} bind def
227.985 64.0108 o
grestore
gsave
/o {
gsave
newpath
translate
0.5 setlinewidth
1 setlinejoin
0 setlinecap
0 0 m
1 0 l
gsave
0.000 setgray
fill
grestore
stroke
grestore
} bind def
38.6475 72.1026 o
grestore
gsave
/o {
gsave
newpath
translate
0.5 setlinewidth
1 setlinejoin
0 setlinecap
0 0 m
-1 0 l
gsave
0.000 setgray
fill
grestore
stroke
grestore
} bind def
227.985 72.1026 o
grestore
gsave
/o {
gsave
newpath
translate
0.5 setlinewidth
1 setlinejoin
0 setlinecap
0 0 m
1 0 l
gsave
0.000 setgray
fill
grestore
stroke
grestore
} bind def
38.6475 80.1944 o
grestore
gsave
/o {
gsave
newpath
translate
0.5 setlinewidth
1 setlinejoin
0 setlinecap
0 0 m
-1 0 l
gsave
0.000 setgray
fill
grestore
stroke
grestore
} bind def
227.985 80.1944 o
grestore
gsave
/o {
gsave
newpath
translate
0.5 setlinewidth
1 setlinejoin
0 setlinecap
0 0 m
1 0 l
gsave
0.000 setgray
fill
grestore
stroke
grestore
} bind def
38.6475 88.2862 o
grestore
gsave
/o {
gsave
newpath
translate
0.5 setlinewidth
1 setlinejoin
0 setlinecap
0 0 m
-1 0 l
gsave
0.000 setgray
fill
grestore
stroke
grestore
} bind def
227.985 88.2862 o
grestore
gsave
/o {
gsave
newpath
translate
0.5 setlinewidth
1 setlinejoin
0 setlinecap
0 0 m
1 0 l
gsave
0.000 setgray
fill
grestore
stroke
grestore
} bind def
38.6475 96.378 o
grestore
gsave
/o {
gsave
newpath
translate
0.5 setlinewidth
1 setlinejoin
0 setlinecap
0 0 m
-1 0 l
gsave
0.000 setgray
fill
grestore
stroke
grestore
} bind def
227.985 96.378 o
grestore
gsave
/o {
gsave
newpath
translate
0.5 setlinewidth
1 setlinejoin
0 setlinecap
0 0 m
1 0 l
gsave
0.000 setgray
fill
grestore
stroke
grestore
} bind def
38.6475 104.47 o
grestore
gsave
/o {
gsave
newpath
translate
0.5 setlinewidth
1 setlinejoin
0 setlinecap
0 0 m
-1 0 l
gsave
0.000 setgray
fill
grestore
stroke
grestore
} bind def
227.985 104.47 o
grestore
gsave
/o {
gsave
newpath
translate
0.5 setlinewidth
1 setlinejoin
0 setlinecap
0 0 m
1 0 l
gsave
0.000 setgray
fill
grestore
stroke
grestore
} bind def
38.6475 112.562 o
grestore
gsave
/o {
gsave
newpath
translate
0.5 setlinewidth
1 setlinejoin
0 setlinecap
0 0 m
-1 0 l
gsave
0.000 setgray
fill
grestore
stroke
grestore
} bind def
227.985 112.562 o
grestore
gsave
/o {
gsave
newpath
translate
0.5 setlinewidth
1 setlinejoin
0 setlinecap
0 0 m
1 0 l
gsave
0.000 setgray
fill
grestore
stroke
grestore
} bind def
38.6475 120.653 o
grestore
gsave
/o {
gsave
newpath
translate
0.5 setlinewidth
1 setlinejoin
0 setlinecap
0 0 m
-1 0 l
gsave
0.000 setgray
fill
grestore
stroke
grestore
} bind def
227.985 120.653 o
grestore
gsave
/o {
gsave
newpath
translate
0.5 setlinewidth
1 setlinejoin
0 setlinecap
0 0 m
1 0 l
gsave
0.000 setgray
fill
grestore
stroke
grestore
} bind def
38.6475 128.745 o
grestore
gsave
/o {
gsave
newpath
translate
0.5 setlinewidth
1 setlinejoin
0 setlinecap
0 0 m
-1 0 l
gsave
0.000 setgray
fill
grestore
stroke
grestore
} bind def
227.985 128.745 o
grestore
gsave
/o {
gsave
newpath
translate
0.5 setlinewidth
1 setlinejoin
0 setlinecap
0 0 m
1 0 l
gsave
0.000 setgray
fill
grestore
stroke
grestore
} bind def
38.6475 136.837 o
grestore
gsave
/o {
gsave
newpath
translate
0.5 setlinewidth
1 setlinejoin
0 setlinecap
0 0 m
-1 0 l
gsave
0.000 setgray
fill
grestore
stroke
grestore
} bind def
227.985 136.837 o
grestore
gsave
/o {
gsave
newpath
translate
0.5 setlinewidth
1 setlinejoin
0 setlinecap
0 0 m
1 0 l
gsave
0.000 setgray
fill
grestore
stroke
grestore
} bind def
38.6475 144.929 o
grestore
gsave
/o {
gsave
newpath
translate
0.5 setlinewidth
1 setlinejoin
0 setlinecap
0 0 m
-1 0 l
gsave
0.000 setgray
fill
grestore
stroke
grestore
} bind def
227.985 144.929 o
grestore
gsave
/o {
gsave
newpath
translate
0.5 setlinewidth
1 setlinejoin
0 setlinecap
0 0 m
1 0 l
gsave
0.000 setgray
fill
grestore
stroke
grestore
} bind def
38.6475 153.021 o
grestore
gsave
/o {
gsave
newpath
translate
0.5 setlinewidth
1 setlinejoin
0 setlinecap
0 0 m
-1 0 l
gsave
0.000 setgray
fill
grestore
stroke
grestore
} bind def
227.985 153.021 o
grestore
gsave
/o {
gsave
newpath
translate
0.5 setlinewidth
1 setlinejoin
0 setlinecap
0 0 m
1 0 l
gsave
0.000 setgray
fill
grestore
stroke
grestore
} bind def
38.6475 161.112 o
grestore
gsave
/o {
gsave
newpath
translate
0.5 setlinewidth
1 setlinejoin
0 setlinecap
0 0 m
-1 0 l
gsave
0.000 setgray
fill
grestore
stroke
grestore
} bind def
227.985 161.112 o
grestore
gsave
/o {
gsave
newpath
translate
0.5 setlinewidth
1 setlinejoin
0 setlinecap
0 0 m
1 0 l
gsave
0.000 setgray
fill
grestore
stroke
grestore
} bind def
38.6475 169.204 o
grestore
gsave
/o {
gsave
newpath
translate
0.5 setlinewidth
1 setlinejoin
0 setlinecap
0 0 m
-1 0 l
gsave
0.000 setgray
fill
grestore
stroke
grestore
} bind def
227.985 169.204 o
grestore
gsave
/o {
gsave
newpath
translate
0.5 setlinewidth
1 setlinejoin
0 setlinecap
0 0 m
1 0 l
gsave
0.000 setgray
fill
grestore
stroke
grestore
} bind def
38.6475 177.296 o
grestore
gsave
/o {
gsave
newpath
translate
0.5 setlinewidth
1 setlinejoin
0 setlinecap
0 0 m
-1 0 l
gsave
0.000 setgray
fill
grestore
stroke
grestore
} bind def
227.985 177.296 o
grestore
/BitstreamVeraSans-Roman findfont
8.000 scalefont
setfont
gsave
20.241250 73.104515 translate
90.000000 rotate
0.000000 0.000000 m /E glyphshow
5.054688 0.000000 m /n glyphshow
10.125000 0.000000 m /e glyphshow
15.046875 0.000000 m /r glyphshow
18.210938 0.000000 m /g glyphshow
23.289062 0.000000 m /y glyphshow
28.023438 0.000000 m /space glyphshow
30.566406 0.000000 m /parenleft glyphshow
33.687500 0.000000 m /e glyphshow
38.609375 0.000000 m /V glyphshow
44.082031 0.000000 m /parenright glyphshow
grestore
gsave
38.6475 177.296 m
227.985 177.296 l
stroke
grestore
gsave
227.985 15.46 m
227.985 177.296 l
stroke
grestore
gsave
38.6475 15.46 m
227.985 15.46 l
stroke
grestore
gsave
38.6475 15.46 m
38.6475 177.296 l
stroke
grestore
/BitstreamVeraSans-Roman findfont
6.000 scalefont
setfont
gsave
52.299988 183.400983 translate
0.000000 rotate
0.000000 0.000000 m /P glyphshow
3.618164 0.000000 m /B glyphshow
7.734375 0.000000 m /E glyphshow
grestore
gsave
88.261215 183.400983 translate
0.000000 rotate
0.000000 0.000000 m /P glyphshow
3.618164 0.000000 m /B glyphshow
7.734375 0.000000 m /E glyphshow
11.525391 0.000000 m /zero glyphshow
grestore
gsave
124.816191 184.150983 translate
0.000000 rotate
/Cmmi10 findfont
6.0 scalefont
setfont
0.000000 0.765625 moveto
/G glyphshow

/Cmr10 findfont
4.2 scalefont
setfont
4.716797 -0.764938 moveto
/zero glyphshow

/Cmmi10 findfont
6.0 scalefont
setfont
7.716797 0.765625 moveto
/W glyphshow

/Cmr10 findfont
4.2 scalefont
setfont
13.379883 -0.764938 moveto
/zero glyphshow


grestore
gsave
152.183667 184.150983 translate
0.000000 rotate
/Cmmi10 findfont
6.0 scalefont
setfont
0.000000 0.546875 moveto
/G glyphshow

/Cmr10 findfont
4.2 scalefont
setfont
4.716797 -0.983688 moveto
/zero glyphshow

/Cmmi10 findfont
6.0 scalefont
setfont
7.716797 0.546875 moveto
/W glyphshow

/Cmr10 findfont
4.2 scalefont
setfont
13.379883 -0.983688 moveto
/zero glyphshow

/BitstreamVeraSans-Roman findfont
6.0 scalefont
setfont
16.379883 0.546875 moveto
/at glyphshow

22.379883 0.546875 moveto
/P glyphshow

25.998047 0.546875 moveto
/B glyphshow

30.114258 0.546875 moveto
/E glyphshow

33.905273 0.546875 moveto
/zero glyphshow


grestore
gsave
199.551144 183.400983 translate
0.000000 rotate
/BitstreamVeraSans-Roman findfont
6.0 scalefont
setfont
0.000000 0.546875 moveto
/Q glyphshow

4.722656 0.546875 moveto
/S glyphshow

/Cmmi10 findfont
6.0 scalefont
setfont
8.531250 0.546875 moveto
/G glyphshow

13.248047 0.546875 moveto
/W glyphshow


grestore

end
showpage
