\relax 
\citation{Rinke2012}
\citation{Chen1990,Rosenblatt1989}
\citation{Rinke2012}
\citation{Chen1990,Rosenblatt1989}
\bibdata{mgoNotes,mgo}
\bibcite{Rinke2012}{{1}{2012}{{Rinke\ \emph  {et~al.}}}{{Rinke, Schleife, Kioupakis, Janotti, R\"odl, Bechstedt, Scheffler,\ and\ Van~de Walle}}}
\bibcite{Chen1990}{{2}{1990}{{Chen\ \emph  {et~al.}}}{{Chen, Orera, Gonzalez, Williams, Williams, Rosenblatt,\ and\ Pogatshnik}}}
\bibcite{Rosenblatt1989}{{3}{1989}{{Rosenblatt\ \emph  {et~al.}}}{{Rosenblatt, Rowe, Williams, Williams,\ and\ Chen}}}
\bibstyle{apsrev4-1}
\citation{REVTEX41Control}
\citation{apsrev41Control}
\newlabel{FirstPage}{{}{1}{}{}{}}
\@writefile{toc}{\contentsline {title}{$F$ center in MgO}{1}{}}
\@writefile{toc}{\contentsline {section}{\numberline {}References}{1}{}}
\newlabel{LastBibItem}{{3}{1}{}{}{}}
\@writefile{lof}{\contentsline {figure}{\numberline {1}{\ignorespaces Vertical transition levels vs inverse size of the supercell.}}{1}{}}
\@writefile{lof}{\contentsline {figure}{\numberline {2}{\ignorespaces Eigenvalues of the defect level and the VBM vs inverse size of the supercell.}}{2}{}}
\@writefile{lot}{\contentsline {table}{\numberline {I}{\ignorespaces Band gaps of MgO and the shift of the VBM with respect to the PBE result.}}{2}{}}
\@writefile{lot}{\contentsline {table}{\numberline {II}{\ignorespaces Vertical charge transition energies $(0/+)$ and $(+/2+)$ of the oxygen vacancy in MgO. Charge transition energies are referred to the VBM. The optical absorption energies are referred to the CBM. Exciton binding energies taken from Ref.\nobreakspace  {}\rev@citealp  {Rinke2012}. Experimental values from Refs.\nobreakspace  {}\rev@citealp  {Chen1990,Rosenblatt1989}. }}{3}{}}
\@writefile{lot}{\contentsline {table}{\numberline {III}{\ignorespaces Vertical charge transiton energy $(0/+)$ obtained either as the ionization potential of $F^0$ or as the electron affinity of $F^+$. Energies are referred to the VBM.}}{3}{}}
\newlabel{LastPage}{{}{3}{}{}{}}
\gdef \@abspage@last{3}
