%!PS-Adobe-2.0 EPSF-2.0
%%BoundingBox: 49 27 542 343
%%HiResBoundingBox: 49.812 27.942 541.625 342.546
%%Title: eigen_conv.eps
%%Creator: gnuplot 4.6 patchlevel 5
%%CreationDate: Wed Jun  4 15:04:31 2014
%%DocumentFonts: (atend)
%%EndComments
%%BeginProlog
/gnudict 256 dict def
gnudict begin
%
% The following true/false flags may be edited by hand if desired.
% The unit line width and grayscale image gamma correction may also be changed.
%
/Color true def
/Blacktext false def
/Solid false def
/Dashlength 1 def
/Landscape false def
/Level1 false def
/Rounded false def
/ClipToBoundingBox false def
/SuppressPDFMark false def
/TransparentPatterns false def
/gnulinewidth 5.000 def
/userlinewidth gnulinewidth def
/Gamma 1.0 def
/BackgroundColor {-1.000 -1.000 -1.000} def
%
/vshift -50 def
/dl1 {
  10.0 Dashlength mul mul
  Rounded { currentlinewidth 0.75 mul sub dup 0 le { pop 0.01 } if } if
} def
/dl2 {
  10.0 Dashlength mul mul
  Rounded { currentlinewidth 0.75 mul add } if
} def
/hpt_ 31.5 def
/vpt_ 31.5 def
/hpt hpt_ def
/vpt vpt_ def
/doclip {
  ClipToBoundingBox {
    newpath 50 50 moveto 546 50 lineto 546 333 lineto 50 333 lineto closepath
    clip
  } if
} def
%
% Gnuplot Prolog Version 4.6 (September 2012)
%
%/SuppressPDFMark true def
%
/M {moveto} bind def
/L {lineto} bind def
/R {rmoveto} bind def
/V {rlineto} bind def
/N {newpath moveto} bind def
/Z {closepath} bind def
/C {setrgbcolor} bind def
/f {rlineto fill} bind def
/g {setgray} bind def
/Gshow {show} def   % May be redefined later in the file to support UTF-8
/vpt2 vpt 2 mul def
/hpt2 hpt 2 mul def
/Lshow {currentpoint stroke M 0 vshift R 
	Blacktext {gsave 0 setgray show grestore} {show} ifelse} def
/Rshow {currentpoint stroke M dup stringwidth pop neg vshift R
	Blacktext {gsave 0 setgray show grestore} {show} ifelse} def
/Cshow {currentpoint stroke M dup stringwidth pop -2 div vshift R 
	Blacktext {gsave 0 setgray show grestore} {show} ifelse} def
/UP {dup vpt_ mul /vpt exch def hpt_ mul /hpt exch def
  /hpt2 hpt 2 mul def /vpt2 vpt 2 mul def} def
/DL {Color {setrgbcolor Solid {pop []} if 0 setdash}
 {pop pop pop 0 setgray Solid {pop []} if 0 setdash} ifelse} def
/BL {stroke userlinewidth 2 mul setlinewidth
	Rounded {1 setlinejoin 1 setlinecap} if} def
/AL {stroke userlinewidth 2 div setlinewidth
	Rounded {1 setlinejoin 1 setlinecap} if} def
/UL {dup gnulinewidth mul /userlinewidth exch def
	dup 1 lt {pop 1} if 10 mul /udl exch def} def
/PL {stroke userlinewidth setlinewidth
	Rounded {1 setlinejoin 1 setlinecap} if} def
3.8 setmiterlimit
% Default Line colors
/LCw {1 1 1} def
/LCb {0 0 0} def
/LCa {0 0 0} def
/LC0 {1 0 0} def
/LC1 {0 1 0} def
/LC2 {0 0 1} def
/LC3 {1 0 1} def
/LC4 {0 1 1} def
/LC5 {1 1 0} def
/LC6 {0 0 0} def
/LC7 {1 0.3 0} def
/LC8 {0.5 0.5 0.5} def
% Default Line Types
/LTw {PL [] 1 setgray} def
/LTb {BL [] LCb DL} def
/LTa {AL [1 udl mul 2 udl mul] 0 setdash LCa setrgbcolor} def
/LT0 {PL [] LC0 DL} def
/LT1 {PL [4 dl1 2 dl2] LC1 DL} def
/LT2 {PL [2 dl1 3 dl2] LC2 DL} def
/LT3 {PL [1 dl1 1.5 dl2] LC3 DL} def
/LT4 {PL [6 dl1 2 dl2 1 dl1 2 dl2] LC4 DL} def
/LT5 {PL [3 dl1 3 dl2 1 dl1 3 dl2] LC5 DL} def
/LT6 {PL [2 dl1 2 dl2 2 dl1 6 dl2] LC6 DL} def
/LT7 {PL [1 dl1 2 dl2 6 dl1 2 dl2 1 dl1 2 dl2] LC7 DL} def
/LT8 {PL [2 dl1 2 dl2 2 dl1 2 dl2 2 dl1 2 dl2 2 dl1 4 dl2] LC8 DL} def
/Pnt {stroke [] 0 setdash gsave 1 setlinecap M 0 0 V stroke grestore} def
/Dia {stroke [] 0 setdash 2 copy vpt add M
  hpt neg vpt neg V hpt vpt neg V
  hpt vpt V hpt neg vpt V closepath stroke
  Pnt} def
/Pls {stroke [] 0 setdash vpt sub M 0 vpt2 V
  currentpoint stroke M
  hpt neg vpt neg R hpt2 0 V stroke
 } def
/Box {stroke [] 0 setdash 2 copy exch hpt sub exch vpt add M
  0 vpt2 neg V hpt2 0 V 0 vpt2 V
  hpt2 neg 0 V closepath stroke
  Pnt} def
/Crs {stroke [] 0 setdash exch hpt sub exch vpt add M
  hpt2 vpt2 neg V currentpoint stroke M
  hpt2 neg 0 R hpt2 vpt2 V stroke} def
/TriU {stroke [] 0 setdash 2 copy vpt 1.12 mul add M
  hpt neg vpt -1.62 mul V
  hpt 2 mul 0 V
  hpt neg vpt 1.62 mul V closepath stroke
  Pnt} def
/Star {2 copy Pls Crs} def
/BoxF {stroke [] 0 setdash exch hpt sub exch vpt add M
  0 vpt2 neg V hpt2 0 V 0 vpt2 V
  hpt2 neg 0 V closepath fill} def
/TriUF {stroke [] 0 setdash vpt 1.12 mul add M
  hpt neg vpt -1.62 mul V
  hpt 2 mul 0 V
  hpt neg vpt 1.62 mul V closepath fill} def
/TriD {stroke [] 0 setdash 2 copy vpt 1.12 mul sub M
  hpt neg vpt 1.62 mul V
  hpt 2 mul 0 V
  hpt neg vpt -1.62 mul V closepath stroke
  Pnt} def
/TriDF {stroke [] 0 setdash vpt 1.12 mul sub M
  hpt neg vpt 1.62 mul V
  hpt 2 mul 0 V
  hpt neg vpt -1.62 mul V closepath fill} def
/DiaF {stroke [] 0 setdash vpt add M
  hpt neg vpt neg V hpt vpt neg V
  hpt vpt V hpt neg vpt V closepath fill} def
/Pent {stroke [] 0 setdash 2 copy gsave
  translate 0 hpt M 4 {72 rotate 0 hpt L} repeat
  closepath stroke grestore Pnt} def
/PentF {stroke [] 0 setdash gsave
  translate 0 hpt M 4 {72 rotate 0 hpt L} repeat
  closepath fill grestore} def
/Circle {stroke [] 0 setdash 2 copy
  hpt 0 360 arc stroke Pnt} def
/CircleF {stroke [] 0 setdash hpt 0 360 arc fill} def
/C0 {BL [] 0 setdash 2 copy moveto vpt 90 450 arc} bind def
/C1 {BL [] 0 setdash 2 copy moveto
	2 copy vpt 0 90 arc closepath fill
	vpt 0 360 arc closepath} bind def
/C2 {BL [] 0 setdash 2 copy moveto
	2 copy vpt 90 180 arc closepath fill
	vpt 0 360 arc closepath} bind def
/C3 {BL [] 0 setdash 2 copy moveto
	2 copy vpt 0 180 arc closepath fill
	vpt 0 360 arc closepath} bind def
/C4 {BL [] 0 setdash 2 copy moveto
	2 copy vpt 180 270 arc closepath fill
	vpt 0 360 arc closepath} bind def
/C5 {BL [] 0 setdash 2 copy moveto
	2 copy vpt 0 90 arc
	2 copy moveto
	2 copy vpt 180 270 arc closepath fill
	vpt 0 360 arc} bind def
/C6 {BL [] 0 setdash 2 copy moveto
	2 copy vpt 90 270 arc closepath fill
	vpt 0 360 arc closepath} bind def
/C7 {BL [] 0 setdash 2 copy moveto
	2 copy vpt 0 270 arc closepath fill
	vpt 0 360 arc closepath} bind def
/C8 {BL [] 0 setdash 2 copy moveto
	2 copy vpt 270 360 arc closepath fill
	vpt 0 360 arc closepath} bind def
/C9 {BL [] 0 setdash 2 copy moveto
	2 copy vpt 270 450 arc closepath fill
	vpt 0 360 arc closepath} bind def
/C10 {BL [] 0 setdash 2 copy 2 copy moveto vpt 270 360 arc closepath fill
	2 copy moveto
	2 copy vpt 90 180 arc closepath fill
	vpt 0 360 arc closepath} bind def
/C11 {BL [] 0 setdash 2 copy moveto
	2 copy vpt 0 180 arc closepath fill
	2 copy moveto
	2 copy vpt 270 360 arc closepath fill
	vpt 0 360 arc closepath} bind def
/C12 {BL [] 0 setdash 2 copy moveto
	2 copy vpt 180 360 arc closepath fill
	vpt 0 360 arc closepath} bind def
/C13 {BL [] 0 setdash 2 copy moveto
	2 copy vpt 0 90 arc closepath fill
	2 copy moveto
	2 copy vpt 180 360 arc closepath fill
	vpt 0 360 arc closepath} bind def
/C14 {BL [] 0 setdash 2 copy moveto
	2 copy vpt 90 360 arc closepath fill
	vpt 0 360 arc} bind def
/C15 {BL [] 0 setdash 2 copy vpt 0 360 arc closepath fill
	vpt 0 360 arc closepath} bind def
/Rec {newpath 4 2 roll moveto 1 index 0 rlineto 0 exch rlineto
	neg 0 rlineto closepath} bind def
/Square {dup Rec} bind def
/Bsquare {vpt sub exch vpt sub exch vpt2 Square} bind def
/S0 {BL [] 0 setdash 2 copy moveto 0 vpt rlineto BL Bsquare} bind def
/S1 {BL [] 0 setdash 2 copy vpt Square fill Bsquare} bind def
/S2 {BL [] 0 setdash 2 copy exch vpt sub exch vpt Square fill Bsquare} bind def
/S3 {BL [] 0 setdash 2 copy exch vpt sub exch vpt2 vpt Rec fill Bsquare} bind def
/S4 {BL [] 0 setdash 2 copy exch vpt sub exch vpt sub vpt Square fill Bsquare} bind def
/S5 {BL [] 0 setdash 2 copy 2 copy vpt Square fill
	exch vpt sub exch vpt sub vpt Square fill Bsquare} bind def
/S6 {BL [] 0 setdash 2 copy exch vpt sub exch vpt sub vpt vpt2 Rec fill Bsquare} bind def
/S7 {BL [] 0 setdash 2 copy exch vpt sub exch vpt sub vpt vpt2 Rec fill
	2 copy vpt Square fill Bsquare} bind def
/S8 {BL [] 0 setdash 2 copy vpt sub vpt Square fill Bsquare} bind def
/S9 {BL [] 0 setdash 2 copy vpt sub vpt vpt2 Rec fill Bsquare} bind def
/S10 {BL [] 0 setdash 2 copy vpt sub vpt Square fill 2 copy exch vpt sub exch vpt Square fill
	Bsquare} bind def
/S11 {BL [] 0 setdash 2 copy vpt sub vpt Square fill 2 copy exch vpt sub exch vpt2 vpt Rec fill
	Bsquare} bind def
/S12 {BL [] 0 setdash 2 copy exch vpt sub exch vpt sub vpt2 vpt Rec fill Bsquare} bind def
/S13 {BL [] 0 setdash 2 copy exch vpt sub exch vpt sub vpt2 vpt Rec fill
	2 copy vpt Square fill Bsquare} bind def
/S14 {BL [] 0 setdash 2 copy exch vpt sub exch vpt sub vpt2 vpt Rec fill
	2 copy exch vpt sub exch vpt Square fill Bsquare} bind def
/S15 {BL [] 0 setdash 2 copy Bsquare fill Bsquare} bind def
/D0 {gsave translate 45 rotate 0 0 S0 stroke grestore} bind def
/D1 {gsave translate 45 rotate 0 0 S1 stroke grestore} bind def
/D2 {gsave translate 45 rotate 0 0 S2 stroke grestore} bind def
/D3 {gsave translate 45 rotate 0 0 S3 stroke grestore} bind def
/D4 {gsave translate 45 rotate 0 0 S4 stroke grestore} bind def
/D5 {gsave translate 45 rotate 0 0 S5 stroke grestore} bind def
/D6 {gsave translate 45 rotate 0 0 S6 stroke grestore} bind def
/D7 {gsave translate 45 rotate 0 0 S7 stroke grestore} bind def
/D8 {gsave translate 45 rotate 0 0 S8 stroke grestore} bind def
/D9 {gsave translate 45 rotate 0 0 S9 stroke grestore} bind def
/D10 {gsave translate 45 rotate 0 0 S10 stroke grestore} bind def
/D11 {gsave translate 45 rotate 0 0 S11 stroke grestore} bind def
/D12 {gsave translate 45 rotate 0 0 S12 stroke grestore} bind def
/D13 {gsave translate 45 rotate 0 0 S13 stroke grestore} bind def
/D14 {gsave translate 45 rotate 0 0 S14 stroke grestore} bind def
/D15 {gsave translate 45 rotate 0 0 S15 stroke grestore} bind def
/DiaE {stroke [] 0 setdash vpt add M
  hpt neg vpt neg V hpt vpt neg V
  hpt vpt V hpt neg vpt V closepath stroke} def
/BoxE {stroke [] 0 setdash exch hpt sub exch vpt add M
  0 vpt2 neg V hpt2 0 V 0 vpt2 V
  hpt2 neg 0 V closepath stroke} def
/TriUE {stroke [] 0 setdash vpt 1.12 mul add M
  hpt neg vpt -1.62 mul V
  hpt 2 mul 0 V
  hpt neg vpt 1.62 mul V closepath stroke} def
/TriDE {stroke [] 0 setdash vpt 1.12 mul sub M
  hpt neg vpt 1.62 mul V
  hpt 2 mul 0 V
  hpt neg vpt -1.62 mul V closepath stroke} def
/PentE {stroke [] 0 setdash gsave
  translate 0 hpt M 4 {72 rotate 0 hpt L} repeat
  closepath stroke grestore} def
/CircE {stroke [] 0 setdash 
  hpt 0 360 arc stroke} def
/Opaque {gsave closepath 1 setgray fill grestore 0 setgray closepath} def
/DiaW {stroke [] 0 setdash vpt add M
  hpt neg vpt neg V hpt vpt neg V
  hpt vpt V hpt neg vpt V Opaque stroke} def
/BoxW {stroke [] 0 setdash exch hpt sub exch vpt add M
  0 vpt2 neg V hpt2 0 V 0 vpt2 V
  hpt2 neg 0 V Opaque stroke} def
/TriUW {stroke [] 0 setdash vpt 1.12 mul add M
  hpt neg vpt -1.62 mul V
  hpt 2 mul 0 V
  hpt neg vpt 1.62 mul V Opaque stroke} def
/TriDW {stroke [] 0 setdash vpt 1.12 mul sub M
  hpt neg vpt 1.62 mul V
  hpt 2 mul 0 V
  hpt neg vpt -1.62 mul V Opaque stroke} def
/PentW {stroke [] 0 setdash gsave
  translate 0 hpt M 4 {72 rotate 0 hpt L} repeat
  Opaque stroke grestore} def
/CircW {stroke [] 0 setdash 
  hpt 0 360 arc Opaque stroke} def
/BoxFill {gsave Rec 1 setgray fill grestore} def
/Density {
  /Fillden exch def
  currentrgbcolor
  /ColB exch def /ColG exch def /ColR exch def
  /ColR ColR Fillden mul Fillden sub 1 add def
  /ColG ColG Fillden mul Fillden sub 1 add def
  /ColB ColB Fillden mul Fillden sub 1 add def
  ColR ColG ColB setrgbcolor} def
/BoxColFill {gsave Rec PolyFill} def
/PolyFill {gsave Density fill grestore grestore} def
/h {rlineto rlineto rlineto gsave closepath fill grestore} bind def
%
% PostScript Level 1 Pattern Fill routine for rectangles
% Usage: x y w h s a XX PatternFill
%	x,y = lower left corner of box to be filled
%	w,h = width and height of box
%	  a = angle in degrees between lines and x-axis
%	 XX = 0/1 for no/yes cross-hatch
%
/PatternFill {gsave /PFa [ 9 2 roll ] def
  PFa 0 get PFa 2 get 2 div add PFa 1 get PFa 3 get 2 div add translate
  PFa 2 get -2 div PFa 3 get -2 div PFa 2 get PFa 3 get Rec
  TransparentPatterns {} {gsave 1 setgray fill grestore} ifelse
  clip
  currentlinewidth 0.5 mul setlinewidth
  /PFs PFa 2 get dup mul PFa 3 get dup mul add sqrt def
  0 0 M PFa 5 get rotate PFs -2 div dup translate
  0 1 PFs PFa 4 get div 1 add floor cvi
	{PFa 4 get mul 0 M 0 PFs V} for
  0 PFa 6 get ne {
	0 1 PFs PFa 4 get div 1 add floor cvi
	{PFa 4 get mul 0 2 1 roll M PFs 0 V} for
 } if
  stroke grestore} def
%
/languagelevel where
 {pop languagelevel} {1} ifelse
 2 lt
	{/InterpretLevel1 true def}
	{/InterpretLevel1 Level1 def}
 ifelse
%
% PostScript level 2 pattern fill definitions
%
/Level2PatternFill {
/Tile8x8 {/PaintType 2 /PatternType 1 /TilingType 1 /BBox [0 0 8 8] /XStep 8 /YStep 8}
	bind def
/KeepColor {currentrgbcolor [/Pattern /DeviceRGB] setcolorspace} bind def
<< Tile8x8
 /PaintProc {0.5 setlinewidth pop 0 0 M 8 8 L 0 8 M 8 0 L stroke} 
>> matrix makepattern
/Pat1 exch def
<< Tile8x8
 /PaintProc {0.5 setlinewidth pop 0 0 M 8 8 L 0 8 M 8 0 L stroke
	0 4 M 4 8 L 8 4 L 4 0 L 0 4 L stroke}
>> matrix makepattern
/Pat2 exch def
<< Tile8x8
 /PaintProc {0.5 setlinewidth pop 0 0 M 0 8 L
	8 8 L 8 0 L 0 0 L fill}
>> matrix makepattern
/Pat3 exch def
<< Tile8x8
 /PaintProc {0.5 setlinewidth pop -4 8 M 8 -4 L
	0 12 M 12 0 L stroke}
>> matrix makepattern
/Pat4 exch def
<< Tile8x8
 /PaintProc {0.5 setlinewidth pop -4 0 M 8 12 L
	0 -4 M 12 8 L stroke}
>> matrix makepattern
/Pat5 exch def
<< Tile8x8
 /PaintProc {0.5 setlinewidth pop -2 8 M 4 -4 L
	0 12 M 8 -4 L 4 12 M 10 0 L stroke}
>> matrix makepattern
/Pat6 exch def
<< Tile8x8
 /PaintProc {0.5 setlinewidth pop -2 0 M 4 12 L
	0 -4 M 8 12 L 4 -4 M 10 8 L stroke}
>> matrix makepattern
/Pat7 exch def
<< Tile8x8
 /PaintProc {0.5 setlinewidth pop 8 -2 M -4 4 L
	12 0 M -4 8 L 12 4 M 0 10 L stroke}
>> matrix makepattern
/Pat8 exch def
<< Tile8x8
 /PaintProc {0.5 setlinewidth pop 0 -2 M 12 4 L
	-4 0 M 12 8 L -4 4 M 8 10 L stroke}
>> matrix makepattern
/Pat9 exch def
/Pattern1 {PatternBgnd KeepColor Pat1 setpattern} bind def
/Pattern2 {PatternBgnd KeepColor Pat2 setpattern} bind def
/Pattern3 {PatternBgnd KeepColor Pat3 setpattern} bind def
/Pattern4 {PatternBgnd KeepColor Landscape {Pat5} {Pat4} ifelse setpattern} bind def
/Pattern5 {PatternBgnd KeepColor Landscape {Pat4} {Pat5} ifelse setpattern} bind def
/Pattern6 {PatternBgnd KeepColor Landscape {Pat9} {Pat6} ifelse setpattern} bind def
/Pattern7 {PatternBgnd KeepColor Landscape {Pat8} {Pat7} ifelse setpattern} bind def
} def
%
%
%End of PostScript Level 2 code
%
/PatternBgnd {
  TransparentPatterns {} {gsave 1 setgray fill grestore} ifelse
} def
%
% Substitute for Level 2 pattern fill codes with
% grayscale if Level 2 support is not selected.
%
/Level1PatternFill {
/Pattern1 {0.250 Density} bind def
/Pattern2 {0.500 Density} bind def
/Pattern3 {0.750 Density} bind def
/Pattern4 {0.125 Density} bind def
/Pattern5 {0.375 Density} bind def
/Pattern6 {0.625 Density} bind def
/Pattern7 {0.875 Density} bind def
} def
%
% Now test for support of Level 2 code
%
Level1 {Level1PatternFill} {Level2PatternFill} ifelse
%
/Symbol-Oblique /Symbol findfont [1 0 .167 1 0 0] makefont
dup length dict begin {1 index /FID eq {pop pop} {def} ifelse} forall
currentdict end definefont pop
/MFshow {
   { dup 5 get 3 ge
     { 5 get 3 eq {gsave} {grestore} ifelse }
     {dup dup 0 get findfont exch 1 get scalefont setfont
     [ currentpoint ] exch dup 2 get 0 exch R dup 5 get 2 ne {dup dup 6
     get exch 4 get {Gshow} {stringwidth pop 0 R} ifelse }if dup 5 get 0 eq
     {dup 3 get {2 get neg 0 exch R pop} {pop aload pop M} ifelse} {dup 5
     get 1 eq {dup 2 get exch dup 3 get exch 6 get stringwidth pop -2 div
     dup 0 R} {dup 6 get stringwidth pop -2 div 0 R 6 get
     show 2 index {aload pop M neg 3 -1 roll neg R pop pop} {pop pop pop
     pop aload pop M} ifelse }ifelse }ifelse }
     ifelse }
   forall} def
/Gswidth {dup type /stringtype eq {stringwidth} {pop (n) stringwidth} ifelse} def
/MFwidth {0 exch { dup 5 get 3 ge { 5 get 3 eq { 0 } { pop } ifelse }
 {dup 3 get{dup dup 0 get findfont exch 1 get scalefont setfont
     6 get Gswidth pop add} {pop} ifelse} ifelse} forall} def
/MLshow { currentpoint stroke M
  0 exch R
  Blacktext {gsave 0 setgray MFshow grestore} {MFshow} ifelse } bind def
/MRshow { currentpoint stroke M
  exch dup MFwidth neg 3 -1 roll R
  Blacktext {gsave 0 setgray MFshow grestore} {MFshow} ifelse } bind def
/MCshow { currentpoint stroke M
  exch dup MFwidth -2 div 3 -1 roll R
  Blacktext {gsave 0 setgray MFshow grestore} {MFshow} ifelse } bind def
/XYsave    { [( ) 1 2 true false 3 ()] } bind def
/XYrestore { [( ) 1 2 true false 4 ()] } bind def
Level1 SuppressPDFMark or 
{} {
/SDict 10 dict def
systemdict /pdfmark known not {
  userdict /pdfmark systemdict /cleartomark get put
} if
SDict begin [
  /Title (eigen_conv.eps)
  /Subject (gnuplot plot)
  /Creator (gnuplot 4.6 patchlevel 5)
  /Author (wchen)
%  /Producer (gnuplot)
%  /Keywords ()
  /CreationDate (Wed Jun  4 15:04:31 2014)
  /DOCINFO pdfmark
end
} ifelse
end
%%EndProlog
%%Page: 1 1
gnudict begin
gsave
doclip
50 50 translate
0.050 0.050 scale
0 setgray
newpath
(Helvetica) findfont 150 scalefont setfont
BackgroundColor 0 lt 3 1 roll 0 lt exch 0 lt or or not {BackgroundColor C 1.000 0 0 9920.00 5668.00 BoxColFill} if
0.700 UL
LTb
0.00 0.00 0.00 C 585 3820 M
31 0 V
1773 0 R
-31 0 V
stroke
495 3820 M
[ [(Helvetica) 120.0 0.0 true true 0 (10.0)]
] -40.0 MRshow
0.700 UL
LTb
0.00 0.00 0.00 C 585 4021 M
15 0 V
1789 0 R
-15 0 V
585 4221 M
31 0 V
1773 0 R
-31 0 V
stroke
495 4221 M
[ [(Helvetica) 120.0 0.0 true true 0 (10.2)]
] -40.0 MRshow
0.700 UL
LTb
0.00 0.00 0.00 C 585 4422 M
15 0 V
1789 0 R
-15 0 V
585 4622 M
31 0 V
1773 0 R
-31 0 V
stroke
495 4622 M
[ [(Helvetica) 120.0 0.0 true true 0 (10.4)]
] -40.0 MRshow
0.700 UL
LTb
0.00 0.00 0.00 C 585 4823 M
15 0 V
1789 0 R
-15 0 V
585 5023 M
31 0 V
1773 0 R
-31 0 V
stroke
495 5023 M
[ [(Helvetica) 120.0 0.0 true true 0 (10.6)]
] -40.0 MRshow
0.700 UL
LTb
0.00 0.00 0.00 C 585 5224 M
15 0 V
1789 0 R
-15 0 V
585 5424 M
31 0 V
1773 0 R
-31 0 V
stroke
495 5424 M
[ [(Helvetica) 120.0 0.0 true true 0 (10.8)]
] -40.0 MRshow
0.700 UL
LTb
0.00 0.00 0.00 C 585 5625 M
15 0 V
1789 0 R
-15 0 V
585 3820 M
0 63 V
stroke
LTb
0.00 0.00 0.00 C 785 3820 M
0 31 V
201 -31 R
0 63 V
stroke
LTb
0.00 0.00 0.00 C 1186 3820 M
0 31 V
201 -31 R
0 63 V
stroke
LTb
0.00 0.00 0.00 C 1587 3820 M
0 31 V
201 -31 R
0 63 V
stroke
LTb
0.00 0.00 0.00 C 1988 3820 M
0 31 V
201 -31 R
0 63 V
stroke
LTb
0.00 0.00 0.00 C 2389 3820 M
0 31 V
stroke
LTb
0.00 0.00 0.00 C 585 5625 N
0 -1805 V
1804 0 V
0 1805 V
-1804 0 V
Z stroke
LCb setrgbcolor
105 4722 M
currentpoint gsave translate -270 rotate 0 0 moveto
[ [(Helvetica-Italic) 150.0 0.0 true true 0 (a)]
[(Helvetica) 120.0 -45.0 true true 0 (1g)]
[(Helvetica) 150.0 0.0 true true 0 ( \(eV\))]
] -35.0 MCshow
grestore
LTb
1487 5775 M
[ [(Helvetica-Italic) 150.0 0.0 true true 0 (q)]
[(Helvetica) 150.0 0.0 true true 0 (=0@R)]
[(Helvetica) 120.0 -45.0 true true 0 (0)]
] -35.0 MCshow
1.200 UP
0.700 UL
LTb
0.00 0.00 0.00 C % Begin plot #1
1.200 UP
2.000 UL
LT0
0.86 0.08 0.24 C 2173 4281 M
-327 241 V
-421 180 V
-210 20 V
2173 4281 BoxF
1846 4522 BoxF
1425 4702 BoxF
1215 4722 BoxF
% End plot #1
% Begin plot #2
1.200 UP
2.000 UL
LT1
0.86 0.08 0.24 C 2173 4823 M
-327 -40 V
-421 -20 V
-210 -20 V
2173 4823 Box
1846 4783 Box
1425 4763 Box
1215 4743 Box
% End plot #2
0.700 UL
LTb
0.00 0.00 0.00 C 585 5625 N
0 -1805 V
1804 0 V
0 1805 V
-1804 0 V
Z stroke
1.200 UP
0.700 UL
LTb
0.00 0.00 0.00 C 0.700 UL
LTb
0.00 0.00 0.00 C 585 1931 M
15 0 V
1789 0 R
-15 0 V
585 2112 M
31 0 V
1773 0 R
-31 0 V
stroke
495 2112 M
[ [(Helvetica) 120.0 0.0 true true 0 (7.6)]
] -40.0 MRshow
0.700 UL
LTb
0.00 0.00 0.00 C 585 2292 M
15 0 V
1789 0 R
-15 0 V
585 2473 M
31 0 V
1773 0 R
-31 0 V
stroke
495 2473 M
[ [(Helvetica) 120.0 0.0 true true 0 (7.8)]
] -40.0 MRshow
0.700 UL
LTb
0.00 0.00 0.00 C 585 2653 M
15 0 V
1789 0 R
-15 0 V
585 2834 M
31 0 V
1773 0 R
-31 0 V
stroke
495 2834 M
[ [(Helvetica) 120.0 0.0 true true 0 (8.0)]
] -40.0 MRshow
0.700 UL
LTb
0.00 0.00 0.00 C 585 3014 M
15 0 V
1789 0 R
-15 0 V
585 3194 M
31 0 V
1773 0 R
-31 0 V
stroke
495 3194 M
[ [(Helvetica) 120.0 0.0 true true 0 (8.2)]
] -40.0 MRshow
0.700 UL
LTb
0.00 0.00 0.00 C 585 3375 M
15 0 V
1789 0 R
-15 0 V
585 3555 M
31 0 V
1773 0 R
-31 0 V
stroke
495 3555 M
[ [(Helvetica) 120.0 0.0 true true 0 (8.4)]
] -40.0 MRshow
0.700 UL
LTb
0.00 0.00 0.00 C 585 3736 M
15 0 V
1789 0 R
-15 0 V
585 1931 M
0 63 V
stroke
LTb
0.00 0.00 0.00 C 785 1931 M
0 31 V
201 -31 R
0 63 V
stroke
LTb
0.00 0.00 0.00 C 1186 1931 M
0 31 V
201 -31 R
0 63 V
stroke
LTb
0.00 0.00 0.00 C 1587 1931 M
0 31 V
201 -31 R
0 63 V
stroke
LTb
0.00 0.00 0.00 C 1988 1931 M
0 31 V
201 -31 R
0 63 V
stroke
LTb
0.00 0.00 0.00 C 2389 1931 M
0 31 V
stroke
LTb
0.00 0.00 0.00 C 585 3736 N
0 -1805 V
1804 0 V
0 1805 V
-1804 0 V
Z stroke
LCb setrgbcolor
150 2833 M
currentpoint gsave translate -270 rotate 0 0 moveto
[ [(Helvetica) 150.0 0.0 true true 0 (VBM \(eV\))]
] -50.0 MCshow
grestore
LTb
1.200 UP
0.700 UL
LTb
0.00 0.00 0.00 C % Begin plot #1
2.000 UL
LT2
1.00 0.65 0.00 C /Helvetica findfont 150 scalefont setfont
/vshift -50 def
585 2834 M
18 0 V
18 0 V
19 0 V
18 0 V
18 0 V
18 0 V
19 0 V
18 0 V
18 0 V
18 0 V
18 0 V
19 0 V
18 0 V
18 0 V
18 0 V
19 0 V
18 0 V
18 0 V
18 0 V
18 0 V
19 0 V
18 0 V
18 0 V
18 0 V
19 0 V
18 0 V
18 0 V
18 0 V
18 0 V
19 0 V
18 0 V
18 0 V
18 0 V
19 0 V
18 0 V
18 0 V
18 0 V
18 0 V
19 0 V
18 0 V
18 0 V
18 0 V
19 0 V
18 0 V
18 0 V
18 0 V
18 0 V
19 0 V
18 0 V
18 0 V
18 0 V
19 0 V
18 0 V
18 0 V
18 0 V
18 0 V
19 0 V
18 0 V
18 0 V
18 0 V
19 0 V
18 0 V
18 0 V
18 0 V
18 0 V
19 0 V
18 0 V
18 0 V
18 0 V
19 0 V
18 0 V
18 0 V
18 0 V
18 0 V
19 0 V
18 0 V
18 0 V
18 0 V
19 0 V
18 0 V
18 0 V
18 0 V
18 0 V
19 0 V
18 0 V
18 0 V
18 0 V
19 0 V
18 0 V
18 0 V
18 0 V
18 0 V
19 0 V
18 0 V
18 0 V
18 0 V
19 0 V
18 0 V
18 0 V
% End plot #1
% Begin plot #2
1.200 UP
stroke
LT0
0.86 0.08 0.24 C /Helvetica findfont 150 scalefont setfont
2173 2148 M
-327 343 V
-421 234 V
-210 54 V
2173 2148 BoxF
1846 2491 BoxF
1425 2725 BoxF
1215 2779 BoxF
% End plot #2
% Begin plot #3
1.200 UP
2.000 UL
LT1
0.86 0.08 0.24 C /Helvetica findfont 150 scalefont setfont
2173 2635 M
-327 90 V
-421 54 V
-210 18 V
2173 2635 Box
1846 2725 Box
1425 2779 Box
1215 2797 Box
% End plot #3
0.700 UL
LTb
0.00 0.00 0.00 C 585 3736 N
0 -1805 V
1804 0 V
0 1805 V
-1804 0 V
Z stroke
1.200 UP
0.700 UL
LTb
0.00 0.00 0.00 C 0.700 UL
LTb
0.00 0.00 0.00 C 585 42 M
31 0 V
1773 0 R
-31 0 V
stroke
495 42 M
[ [(Helvetica) 120.0 0.0 true true 0 (2.0)]
] -40.0 MRshow
0.700 UL
LTb
0.00 0.00 0.00 C 585 223 M
15 0 V
1789 0 R
-15 0 V
585 403 M
31 0 V
1773 0 R
-31 0 V
stroke
495 403 M
[ [(Helvetica) 120.0 0.0 true true 0 (2.2)]
] -40.0 MRshow
0.700 UL
LTb
0.00 0.00 0.00 C 585 584 M
15 0 V
1789 0 R
-15 0 V
585 764 M
31 0 V
1773 0 R
-31 0 V
stroke
495 764 M
[ [(Helvetica) 120.0 0.0 true true 0 (2.4)]
] -40.0 MRshow
0.700 UL
LTb
0.00 0.00 0.00 C 585 945 M
15 0 V
1789 0 R
-15 0 V
585 1125 M
31 0 V
1773 0 R
-31 0 V
stroke
495 1125 M
[ [(Helvetica) 120.0 0.0 true true 0 (2.6)]
] -40.0 MRshow
0.700 UL
LTb
0.00 0.00 0.00 C 585 1306 M
15 0 V
1789 0 R
-15 0 V
585 1486 M
31 0 V
1773 0 R
-31 0 V
stroke
495 1486 M
[ [(Helvetica) 120.0 0.0 true true 0 (2.8)]
] -40.0 MRshow
0.700 UL
LTb
0.00 0.00 0.00 C 585 1667 M
15 0 V
1789 0 R
-15 0 V
585 1847 M
31 0 V
1773 0 R
-31 0 V
stroke
495 1847 M
[ [(Helvetica) 120.0 0.0 true true 0 (3.0)]
] -40.0 MRshow
0.700 UL
LTb
0.00 0.00 0.00 C 585 42 M
0 63 V
stroke
585 -108 M
[ [(Helvetica) 120.0 0.0 true true 0 (0.0)]
] -40.0 MCshow
0.700 UL
LTb
0.00 0.00 0.00 C 785 42 M
0 31 V
986 42 M
0 63 V
stroke
986 -108 M
[ [(Helvetica) 120.0 0.0 true true 0 (0.2)]
] -40.0 MCshow
0.700 UL
LTb
0.00 0.00 0.00 C 1186 42 M
0 31 V
1387 42 M
0 63 V
stroke
1387 -108 M
[ [(Helvetica) 120.0 0.0 true true 0 (0.4)]
] -40.0 MCshow
0.700 UL
LTb
0.00 0.00 0.00 C 1587 42 M
0 31 V
1788 42 M
0 63 V
stroke
1788 -108 M
[ [(Helvetica) 120.0 0.0 true true 0 (0.6)]
] -40.0 MCshow
0.700 UL
LTb
0.00 0.00 0.00 C 1988 42 M
0 31 V
2189 42 M
0 63 V
stroke
2189 -108 M
[ [(Helvetica) 120.0 0.0 true true 0 (0.8)]
] -40.0 MCshow
0.700 UL
LTb
0.00 0.00 0.00 C 2389 42 M
0 31 V
stroke
LTb
0.00 0.00 0.00 C 585 1847 N
585 42 L
1804 0 V
0 1805 V
-1804 0 V
Z stroke
LCb setrgbcolor
150 944 M
currentpoint gsave translate -270 rotate 0 0 moveto
[ [(Helvetica-Italic) 150.0 0.0 true true 0 (a)]
[(Helvetica) 120.0 -45.0 true true 0 (1g)]
[(Helvetica) 150.0 0.0 true true 0 (-VBM \(eV\))]
] -35.0 MCshow
grestore
LTb
LCb setrgbcolor
1487 -333 M
[ [(Helvetica) 150.0 0.0 true true 0 (1/)]
[(Helvetica-Italic) 150.0 0.0 true true 0 (L)]
[(Helvetica) 150.0 0.0 true true 0 ( \(10)]
[(Helvetica) 120.0 75.0 true true 0 (-1)]
[(Helvetica) 150.0 0.0 true true 0 ( bohr)]
[(Helvetica) 120.0 75.0 true true 0 (-1)]
[(Helvetica) 150.0 0.0 true true 0 (\))]
] -65.0 MCshow
LTb
1.200 UP
0.700 UL
LTb
0.00 0.00 0.00 C % Begin plot #1
1.200 UP
2.000 UL
LT0
0.86 0.08 0.24 C /Helvetica findfont 150 scalefont setfont
2173 1143 M
1846 1017 L
1425 944 L
1215 908 L
2173 1143 BoxF
1846 1017 BoxF
1425 944 BoxF
1215 908 BoxF
% End plot #1
% Begin plot #2
1.000 UL
LT1
LC1 setrgbcolor
/Helvetica findfont 150 scalefont setfont
1.200 UP
0.86 0.08 0.24 C 2155 1293 M
[ [(Helvetica) 120.0 0.0 true true 0 (32)]
] -40.0 MCshow
0.86 0.08 0.24 C 1828 1167 M
[ [(Helvetica) 120.0 0.0 true true 0 (64)]
] -40.0 MCshow
0.86 0.08 0.24 C 1407 1094 M
[ [(Helvetica) 120.0 0.0 true true 0 (216)]
] -40.0 MCshow
0.86 0.08 0.24 C 1197 1058 M
[ [(Helvetica) 120.0 0.0 true true 0 (512)]
] -40.0 MCshow
% End plot #2
0.700 UL
LTb
0.00 0.00 0.00 C 585 1847 N
585 42 L
1804 0 V
0 1805 V
-1804 0 V
Z stroke
1.200 UP
0.700 UL
LTb
0.00 0.00 0.00 C 0.700 UL
LTb
0.00 0.00 0.00 C 3065 3820 M
31 0 V
1773 0 R
-31 0 V
stroke
2975 3820 M
[ [(Helvetica) 120.0 0.0 true true 0 (8.4)]
] -40.0 MRshow
0.700 UL
LTb
0.00 0.00 0.00 C 3065 3984 M
15 0 V
1789 0 R
-15 0 V
3065 4148 M
31 0 V
1773 0 R
-31 0 V
stroke
2975 4148 M
[ [(Helvetica) 120.0 0.0 true true 0 (8.8)]
] -40.0 MRshow
0.700 UL
LTb
0.00 0.00 0.00 C 3065 4312 M
15 0 V
1789 0 R
-15 0 V
3065 4476 M
31 0 V
1773 0 R
-31 0 V
stroke
2975 4476 M
[ [(Helvetica) 120.0 0.0 true true 0 (9.2)]
] -40.0 MRshow
0.700 UL
LTb
0.00 0.00 0.00 C 3065 4640 M
15 0 V
1789 0 R
-15 0 V
3065 4805 M
31 0 V
1773 0 R
-31 0 V
stroke
2975 4805 M
[ [(Helvetica) 120.0 0.0 true true 0 (9.6)]
] -40.0 MRshow
0.700 UL
LTb
0.00 0.00 0.00 C 3065 4969 M
15 0 V
1789 0 R
-15 0 V
3065 5133 M
31 0 V
1773 0 R
-31 0 V
stroke
2975 5133 M
[ [(Helvetica) 120.0 0.0 true true 0 (10.0)]
] -40.0 MRshow
0.700 UL
LTb
0.00 0.00 0.00 C 3065 5297 M
15 0 V
1789 0 R
-15 0 V
3065 5461 M
31 0 V
1773 0 R
-31 0 V
stroke
2975 5461 M
[ [(Helvetica) 120.0 0.0 true true 0 (10.4)]
] -40.0 MRshow
0.700 UL
LTb
0.00 0.00 0.00 C 3065 5625 M
15 0 V
1789 0 R
-15 0 V
3065 3820 M
0 63 V
stroke
LTb
0.00 0.00 0.00 C 3265 3820 M
0 31 V
201 -31 R
0 63 V
stroke
LTb
0.00 0.00 0.00 C 3666 3820 M
0 31 V
201 -31 R
0 63 V
stroke
LTb
0.00 0.00 0.00 C 4067 3820 M
0 31 V
201 -31 R
0 63 V
stroke
LTb
0.00 0.00 0.00 C 4468 3820 M
0 31 V
201 -31 R
0 63 V
stroke
LTb
0.00 0.00 0.00 C 4869 3820 M
0 31 V
stroke
LTb
0.00 0.00 0.00 C 3065 5625 N
0 -1805 V
1804 0 V
0 1805 V
-1804 0 V
Z stroke
LCb setrgbcolor
2540 4722 M
currentpoint gsave translate -270 rotate 0 0 moveto
[ [(Helvetica) 150.0 0.0 true true 0 ( )]
] -50.0 MCshow
grestore
LTb
3967 5775 M
[ [(Helvetica-Italic) 150.0 0.0 true true 0 (q)]
[(Helvetica) 150.0 0.0 true true 0 (=+1@R)]
[(Helvetica) 120.0 -45.0 true true 0 (0)]
[(Helvetica) 150.0 0.0 true true 0 ( )]
] -35.0 MCshow
1.200 UP
0.700 UL
LTb
0.00 0.00 0.00 C % Begin plot #1
2.000 UL
LT2
1.00 0.65 0.00 C 3065 4194 M
18 17 V
18 16 V
19 16 V
18 17 V
18 16 V
18 16 V
19 17 V
18 16 V
18 16 V
18 16 V
18 17 V
19 16 V
18 16 V
18 17 V
18 16 V
19 16 V
18 16 V
18 17 V
18 16 V
18 16 V
19 16 V
18 17 V
18 16 V
18 16 V
19 16 V
18 17 V
18 16 V
18 16 V
18 16 V
19 16 V
18 17 V
18 16 V
18 16 V
19 16 V
18 16 V
18 16 V
18 16 V
18 16 V
19 17 V
18 16 V
18 16 V
18 16 V
19 16 V
18 16 V
18 16 V
18 16 V
18 16 V
19 16 V
18 16 V
18 16 V
18 16 V
19 16 V
18 16 V
18 15 V
18 16 V
18 16 V
19 16 V
18 16 V
18 16 V
18 15 V
19 16 V
18 16 V
18 16 V
18 15 V
18 16 V
19 16 V
18 15 V
18 16 V
18 16 V
19 15 V
18 16 V
18 15 V
18 16 V
18 15 V
19 16 V
18 15 V
18 16 V
18 15 V
19 16 V
18 15 V
18 15 V
18 16 V
18 15 V
19 15 V
18 16 V
18 15 V
18 15 V
19 15 V
18 15 V
16 14 V
% End plot #1
% Begin plot #2
stroke
LT2
1.00 0.65 0.00 C 3065 4196 M
18 16 V
18 17 V
19 16 V
18 17 V
18 16 V
18 17 V
19 16 V
18 16 V
18 17 V
18 16 V
18 17 V
19 16 V
18 16 V
18 16 V
18 17 V
19 16 V
18 16 V
18 16 V
18 16 V
18 16 V
19 16 V
18 16 V
18 16 V
18 16 V
19 16 V
18 15 V
18 16 V
18 15 V
18 16 V
19 15 V
18 16 V
18 15 V
18 15 V
19 15 V
18 15 V
18 15 V
18 15 V
18 15 V
19 14 V
18 15 V
18 14 V
18 15 V
19 14 V
18 14 V
18 14 V
18 14 V
18 14 V
19 14 V
18 13 V
18 14 V
18 13 V
19 13 V
18 14 V
18 12 V
18 13 V
18 13 V
19 13 V
18 12 V
18 12 V
18 12 V
19 12 V
18 12 V
18 12 V
18 11 V
18 12 V
19 11 V
18 11 V
18 11 V
18 11 V
19 10 V
18 11 V
18 10 V
18 10 V
18 10 V
19 9 V
18 10 V
18 9 V
18 9 V
19 9 V
18 9 V
18 9 V
18 8 V
18 8 V
19 8 V
18 8 V
18 7 V
18 7 V
19 8 V
18 6 V
18 7 V
18 7 V
18 6 V
19 6 V
18 5 V
18 6 V
18 5 V
19 5 V
18 5 V
18 5 V
% End plot #2
% Begin plot #3
stroke
LT2
1.00 0.65 0.00 C 3065 4196 M
18 0 V
18 0 V
19 0 V
18 0 V
18 0 V
18 0 V
19 0 V
18 0 V
18 0 V
18 0 V
18 0 V
19 0 V
18 0 V
18 0 V
18 0 V
19 0 V
18 0 V
18 0 V
18 0 V
18 0 V
19 0 V
18 0 V
18 0 V
18 0 V
19 0 V
18 0 V
18 0 V
18 0 V
18 0 V
19 0 V
18 0 V
18 0 V
18 0 V
19 0 V
18 0 V
18 0 V
18 0 V
18 0 V
19 0 V
18 0 V
18 0 V
18 0 V
19 0 V
18 0 V
18 0 V
18 0 V
18 0 V
19 0 V
18 0 V
18 0 V
18 0 V
19 0 V
18 0 V
18 0 V
18 0 V
18 0 V
19 0 V
18 0 V
18 0 V
18 0 V
19 0 V
18 0 V
18 0 V
18 0 V
18 0 V
19 0 V
18 0 V
18 0 V
18 0 V
19 0 V
18 0 V
18 0 V
18 0 V
18 0 V
19 0 V
18 0 V
18 0 V
18 0 V
19 0 V
18 0 V
18 0 V
18 0 V
18 0 V
19 0 V
18 0 V
18 0 V
18 0 V
19 0 V
18 0 V
18 0 V
18 0 V
18 0 V
19 0 V
18 0 V
18 0 V
18 0 V
19 0 V
18 0 V
18 0 V
% End plot #3
% Begin plot #4
1.200 UP
stroke
LT0
0.86 0.08 0.24 C 4653 5362 M
4326 5198 L
3905 4919 L
3695 4747 L
4653 5362 BoxF
4326 5198 BoxF
3905 4919 BoxF
3695 4747 BoxF
% End plot #4
% Begin plot #5
1.200 UP
2.000 UL
LT1
0.86 0.08 0.24 C 4653 5584 M
4326 5305 L
3905 4944 L
3695 4755 L
4653 5584 Box
4326 5305 Box
3905 4944 Box
3695 4755 Box
% End plot #5
% Begin plot #6
1.200 UP
2.000 UL
LT0
0.00 0.00 0.50 C 4653 3918 M
-327 148 V
-421 82 V
-210 8 V
4653 3918 CircleF
4326 4066 CircleF
3905 4148 CircleF
3695 4156 CircleF
% End plot #6
% Begin plot #7
1.200 UP
2.000 UL
LT1
0.00 0.00 0.50 C 4653 4140 M
-327 33 V
-421 0 V
-210 -8 V
4653 4140 Circle
4326 4173 Circle
3905 4173 Circle
3695 4165 Circle
% End plot #7
0.700 UL
LTb
0.00 0.00 0.00 C 3065 5625 N
0 -1805 V
1804 0 V
0 1805 V
-1804 0 V
Z stroke
1.200 UP
0.700 UL
LTb
0.00 0.00 0.00 C 0.700 UL
LTb
0.00 0.00 0.00 C 3065 1931 M
15 0 V
1789 0 R
-15 0 V
3065 2112 M
31 0 V
1773 0 R
-31 0 V
stroke
2975 2112 M
[ [(Helvetica) 120.0 0.0 true true 0 (7.6)]
] -40.0 MRshow
0.700 UL
LTb
0.00 0.00 0.00 C 3065 2292 M
15 0 V
1789 0 R
-15 0 V
3065 2473 M
31 0 V
1773 0 R
-31 0 V
stroke
2975 2473 M
[ [(Helvetica) 120.0 0.0 true true 0 (7.8)]
] -40.0 MRshow
0.700 UL
LTb
0.00 0.00 0.00 C 3065 2653 M
15 0 V
1789 0 R
-15 0 V
3065 2834 M
31 0 V
1773 0 R
-31 0 V
stroke
2975 2834 M
[ [(Helvetica) 120.0 0.0 true true 0 (8.0)]
] -40.0 MRshow
0.700 UL
LTb
0.00 0.00 0.00 C 3065 3014 M
15 0 V
1789 0 R
-15 0 V
3065 3194 M
31 0 V
1773 0 R
-31 0 V
stroke
2975 3194 M
[ [(Helvetica) 120.0 0.0 true true 0 (8.2)]
] -40.0 MRshow
0.700 UL
LTb
0.00 0.00 0.00 C 3065 3375 M
15 0 V
1789 0 R
-15 0 V
3065 3555 M
31 0 V
1773 0 R
-31 0 V
stroke
2975 3555 M
[ [(Helvetica) 120.0 0.0 true true 0 (8.4)]
] -40.0 MRshow
0.700 UL
LTb
0.00 0.00 0.00 C 3065 3736 M
15 0 V
1789 0 R
-15 0 V
3065 1931 M
0 63 V
stroke
LTb
0.00 0.00 0.00 C 3265 1931 M
0 31 V
201 -31 R
0 63 V
stroke
LTb
0.00 0.00 0.00 C 3666 1931 M
0 31 V
201 -31 R
0 63 V
stroke
LTb
0.00 0.00 0.00 C 4067 1931 M
0 31 V
201 -31 R
0 63 V
stroke
LTb
0.00 0.00 0.00 C 4468 1931 M
0 31 V
201 -31 R
0 63 V
stroke
LTb
0.00 0.00 0.00 C 4869 1931 M
0 31 V
stroke
LTb
0.00 0.00 0.00 C 3065 3736 N
0 -1805 V
1804 0 V
0 1805 V
-1804 0 V
Z stroke
LCb setrgbcolor
LTb
1.200 UP
0.700 UL
LTb
0.00 0.00 0.00 C % Begin plot #1
2.000 UL
LT2
1.00 0.65 0.00 C /Helvetica findfont 150 scalefont setfont
3065 2834 M
18 0 V
18 0 V
19 0 V
18 0 V
18 0 V
18 0 V
19 0 V
18 0 V
18 0 V
18 0 V
18 0 V
19 0 V
18 0 V
18 0 V
18 0 V
19 0 V
18 0 V
18 0 V
18 0 V
18 0 V
19 0 V
18 0 V
18 0 V
18 0 V
19 0 V
18 0 V
18 0 V
18 0 V
18 0 V
19 0 V
18 0 V
18 0 V
18 0 V
19 0 V
18 0 V
18 0 V
18 0 V
18 0 V
19 0 V
18 0 V
18 0 V
18 0 V
19 0 V
18 0 V
18 0 V
18 0 V
18 0 V
19 0 V
18 0 V
18 0 V
18 0 V
19 0 V
18 0 V
18 0 V
18 0 V
18 0 V
19 0 V
18 0 V
18 0 V
18 0 V
19 0 V
18 0 V
18 0 V
18 0 V
18 0 V
19 0 V
18 0 V
18 0 V
18 0 V
19 0 V
18 0 V
18 0 V
18 0 V
18 0 V
19 0 V
18 0 V
18 0 V
18 0 V
19 0 V
18 0 V
18 0 V
18 0 V
18 0 V
19 0 V
18 0 V
18 0 V
18 0 V
19 0 V
18 0 V
18 0 V
18 0 V
18 0 V
19 0 V
18 0 V
18 0 V
18 0 V
19 0 V
18 0 V
18 0 V
% End plot #1
% Begin plot #2
1.200 UP
stroke
LT0
0.86 0.08 0.24 C /Helvetica findfont 150 scalefont setfont
4653 2382 M
-327 307 V
-421 199 V
-210 36 V
4653 2382 BoxF
4326 2689 BoxF
3905 2888 BoxF
3695 2924 BoxF
% End plot #2
% Begin plot #3
1.200 UP
2.000 UL
LT1
0.86 0.08 0.24 C /Helvetica findfont 150 scalefont setfont
4653 2870 M
-327 54 V
-421 18 V
-210 0 V
4653 2870 Box
4326 2924 Box
3905 2942 Box
3695 2942 Box
% End plot #3
0.700 UL
LTb
0.00 0.00 0.00 C 3065 3736 N
0 -1805 V
1804 0 V
0 1805 V
-1804 0 V
Z stroke
1.200 UP
0.700 UL
LTb
0.00 0.00 0.00 C 0.700 UL
LTb
0.00 0.00 0.00 C 3065 114 M
15 0 V
1789 0 R
-15 0 V
3065 259 M
31 0 V
1773 0 R
-31 0 V
stroke
2975 259 M
[ [(Helvetica) 120.0 0.0 true true 0 (0.8)]
] -40.0 MRshow
0.700 UL
LTb
0.00 0.00 0.00 C 3065 403 M
15 0 V
1789 0 R
-15 0 V
3065 547 M
31 0 V
1773 0 R
-31 0 V
stroke
2975 547 M
[ [(Helvetica) 120.0 0.0 true true 0 (1.2)]
] -40.0 MRshow
0.700 UL
LTb
0.00 0.00 0.00 C 3065 692 M
15 0 V
1789 0 R
-15 0 V
3065 836 M
31 0 V
1773 0 R
-31 0 V
stroke
2975 836 M
[ [(Helvetica) 120.0 0.0 true true 0 (1.6)]
] -40.0 MRshow
0.700 UL
LTb
0.00 0.00 0.00 C 3065 981 M
15 0 V
1789 0 R
-15 0 V
3065 1125 M
31 0 V
1773 0 R
-31 0 V
stroke
2975 1125 M
[ [(Helvetica) 120.0 0.0 true true 0 (2.0)]
] -40.0 MRshow
0.700 UL
LTb
0.00 0.00 0.00 C 3065 1269 M
15 0 V
1789 0 R
-15 0 V
3065 1414 M
31 0 V
1773 0 R
-31 0 V
stroke
2975 1414 M
[ [(Helvetica) 120.0 0.0 true true 0 (2.4)]
] -40.0 MRshow
0.700 UL
LTb
0.00 0.00 0.00 C 3065 1558 M
15 0 V
1789 0 R
-15 0 V
3065 1703 M
31 0 V
1773 0 R
-31 0 V
stroke
2975 1703 M
[ [(Helvetica) 120.0 0.0 true true 0 (2.8)]
] -40.0 MRshow
0.700 UL
LTb
0.00 0.00 0.00 C 3065 1847 M
15 0 V
1789 0 R
-15 0 V
3065 42 M
0 63 V
stroke
3065 -108 M
[ [(Helvetica) 120.0 0.0 true true 0 (0.0)]
] -40.0 MCshow
0.700 UL
LTb
0.00 0.00 0.00 C 3265 42 M
0 31 V
3466 42 M
0 63 V
stroke
3466 -108 M
[ [(Helvetica) 120.0 0.0 true true 0 (0.2)]
] -40.0 MCshow
0.700 UL
LTb
0.00 0.00 0.00 C 3666 42 M
0 31 V
3867 42 M
0 63 V
stroke
3867 -108 M
[ [(Helvetica) 120.0 0.0 true true 0 (0.4)]
] -40.0 MCshow
0.700 UL
LTb
0.00 0.00 0.00 C 4067 42 M
0 31 V
4268 42 M
0 63 V
stroke
4268 -108 M
[ [(Helvetica) 120.0 0.0 true true 0 (0.6)]
] -40.0 MCshow
0.700 UL
LTb
0.00 0.00 0.00 C 4468 42 M
0 31 V
4669 42 M
0 63 V
stroke
4669 -108 M
[ [(Helvetica) 120.0 0.0 true true 0 (0.8)]
] -40.0 MCshow
0.700 UL
LTb
0.00 0.00 0.00 C 4869 42 M
0 31 V
stroke
LTb
0.00 0.00 0.00 C 3065 1847 N
3065 42 L
1804 0 V
0 1805 V
-1804 0 V
Z stroke
LCb setrgbcolor
LTb
LCb setrgbcolor
3967 -333 M
[ [(Helvetica) 150.0 0.0 true true 0 (1/)]
[(Helvetica-Italic) 150.0 0.0 true true 0 (L)]
[(Helvetica) 150.0 0.0 true true 0 ( \(10)]
[(Helvetica) 120.0 75.0 true true 0 (-1)]
[(Helvetica) 150.0 0.0 true true 0 ( bohr)]
[(Helvetica) 120.0 75.0 true true 0 (-1)]
[(Helvetica) 150.0 0.0 true true 0 (\))]
] -65.0 MCshow
LTb
1.200 UP
0.700 UL
LTb
0.00 0.00 0.00 C % Begin plot #1
2.000 UL
LT2
1.00 0.65 0.00 C /Helvetica findfont 150 scalefont setfont
3065 273 M
18 13 V
18 14 V
19 14 V
18 14 V
18 13 V
18 14 V
19 14 V
18 14 V
18 14 V
18 13 V
18 14 V
19 14 V
18 14 V
18 14 V
18 13 V
19 14 V
18 14 V
18 14 V
18 14 V
18 13 V
19 14 V
18 14 V
18 14 V
18 14 V
19 14 V
18 14 V
18 13 V
18 14 V
18 14 V
19 14 V
18 14 V
18 14 V
18 14 V
19 14 V
18 14 V
18 14 V
18 14 V
18 14 V
19 14 V
18 14 V
18 14 V
18 14 V
19 14 V
18 14 V
18 14 V
18 14 V
18 14 V
19 14 V
18 14 V
18 15 V
18 14 V
19 14 V
18 14 V
18 14 V
18 15 V
18 14 V
19 14 V
18 14 V
18 15 V
18 14 V
19 14 V
18 15 V
18 14 V
18 14 V
18 15 V
19 14 V
18 15 V
18 14 V
18 15 V
19 14 V
18 15 V
18 14 V
18 15 V
18 15 V
19 14 V
18 15 V
18 14 V
18 15 V
19 15 V
18 15 V
18 14 V
18 15 V
18 15 V
19 15 V
18 15 V
18 15 V
18 15 V
19 15 V
18 15 V
18 15 V
18 15 V
18 15 V
19 15 V
18 15 V
18 15 V
18 15 V
19 15 V
18 16 V
18 15 V
% End plot #1
% Begin plot #2
stroke
LT2
1.00 0.65 0.00 C /Helvetica findfont 150 scalefont setfont
3065 273 M
18 0 V
18 0 V
19 0 V
18 0 V
18 0 V
18 0 V
19 0 V
18 0 V
18 0 V
18 0 V
18 0 V
19 0 V
18 0 V
18 0 V
18 0 V
19 0 V
18 0 V
18 0 V
18 0 V
18 0 V
19 0 V
18 0 V
18 0 V
18 0 V
19 0 V
18 0 V
18 0 V
18 0 V
18 0 V
19 0 V
18 0 V
18 0 V
18 0 V
19 0 V
18 0 V
18 0 V
18 0 V
18 0 V
19 0 V
18 0 V
18 0 V
18 0 V
19 0 V
18 0 V
18 0 V
18 0 V
18 0 V
19 0 V
18 0 V
18 0 V
18 0 V
19 0 V
18 0 V
18 0 V
18 0 V
18 0 V
19 0 V
18 0 V
18 0 V
18 0 V
19 0 V
18 0 V
18 0 V
18 0 V
18 0 V
19 0 V
18 0 V
18 0 V
18 0 V
19 0 V
18 0 V
18 0 V
18 0 V
18 0 V
19 0 V
18 0 V
18 0 V
18 0 V
19 0 V
18 0 V
18 0 V
18 0 V
18 0 V
19 0 V
18 0 V
18 0 V
18 0 V
19 0 V
18 0 V
18 0 V
18 0 V
18 0 V
19 0 V
18 0 V
18 0 V
18 0 V
19 0 V
18 0 V
18 0 V
% End plot #2
% Begin plot #3
1.200 UP
stroke
LT0
0.86 0.08 0.24 C /Helvetica findfont 150 scalefont setfont
4653 1508 M
4326 1241 L
3905 916 L
3695 750 L
4653 1508 BoxF
4326 1241 BoxF
3905 916 BoxF
3695 750 BoxF
% End plot #3
% Begin plot #4
1.200 UP
2.000 UL
LT0
0.00 0.00 0.50 C /Helvetica findfont 150 scalefont setfont
4653 237 M
-327 7 V
-421 -7 V
-210 -7 V
4653 237 CircleF
4326 244 CircleF
3905 237 CircleF
3695 230 CircleF
% End plot #4
% Begin plot #5
1.000 UL
LT4
LC4 setrgbcolor
/Helvetica findfont 150 scalefont setfont
1.200 UP
0.86 0.08 0.24 C 4635 1658 M
[ [(Helvetica) 120.0 0.0 true true 0 (32)]
] -40.0 MCshow
0.86 0.08 0.24 C 4308 1391 M
[ [(Helvetica) 120.0 0.0 true true 0 (64)]
] -40.0 MCshow
0.86 0.08 0.24 C 3887 1066 M
[ [(Helvetica) 120.0 0.0 true true 0 (216)]
] -40.0 MCshow
0.86 0.08 0.24 C 3677 900 M
[ [(Helvetica) 120.0 0.0 true true 0 (512)]
] -40.0 MCshow
% End plot #5
0.700 UL
LTb
0.00 0.00 0.00 C 3065 1847 N
3065 42 L
1804 0 V
0 1805 V
-1804 0 V
Z stroke
1.200 UP
0.700 UL
LTb
0.00 0.00 0.00 C 0.700 UL
LTb
0.00 0.00 0.00 C 5545 3820 M
31 0 V
1773 0 R
-31 0 V
stroke
5455 3820 M
[ [(Helvetica) 120.0 0.0 true true 0 (8.4)]
] -40.0 MRshow
0.700 UL
LTb
0.00 0.00 0.00 C 5545 4021 M
15 0 V
1789 0 R
-15 0 V
5545 4221 M
31 0 V
1773 0 R
-31 0 V
stroke
5455 4221 M
[ [(Helvetica) 120.0 0.0 true true 0 (8.8)]
] -40.0 MRshow
0.700 UL
LTb
0.00 0.00 0.00 C 5545 4422 M
15 0 V
1789 0 R
-15 0 V
5545 4622 M
31 0 V
1773 0 R
-31 0 V
stroke
5455 4622 M
[ [(Helvetica) 120.0 0.0 true true 0 (9.2)]
] -40.0 MRshow
0.700 UL
LTb
0.00 0.00 0.00 C 5545 4823 M
15 0 V
1789 0 R
-15 0 V
5545 5023 M
31 0 V
1773 0 R
-31 0 V
stroke
5455 5023 M
[ [(Helvetica) 120.0 0.0 true true 0 (9.6)]
] -40.0 MRshow
0.700 UL
LTb
0.00 0.00 0.00 C 5545 5224 M
15 0 V
1789 0 R
-15 0 V
5545 5424 M
31 0 V
1773 0 R
-31 0 V
stroke
5455 5424 M
[ [(Helvetica) 120.0 0.0 true true 0 (10.0)]
] -40.0 MRshow
0.700 UL
LTb
0.00 0.00 0.00 C 5545 5625 M
15 0 V
1789 0 R
-15 0 V
5545 3820 M
0 63 V
stroke
LTb
0.00 0.00 0.00 C 5745 3820 M
0 31 V
201 -31 R
0 63 V
stroke
LTb
0.00 0.00 0.00 C 6146 3820 M
0 31 V
201 -31 R
0 63 V
stroke
LTb
0.00 0.00 0.00 C 6547 3820 M
0 31 V
201 -31 R
0 63 V
stroke
LTb
0.00 0.00 0.00 C 6948 3820 M
0 31 V
201 -31 R
0 63 V
stroke
LTb
0.00 0.00 0.00 C 7349 3820 M
0 31 V
stroke
LTb
0.00 0.00 0.00 C 5545 5625 N
0 -1805 V
1804 0 V
0 1805 V
-1804 0 V
Z stroke
LCb setrgbcolor
LTb
6447 5775 M
[ [(Helvetica-Italic) 150.0 0.0 true true 0 (q)]
[(Helvetica) 150.0 0.0 true true 0 (=+1@R)]
[(Helvetica) 120.0 -45.0 true true 0 (+1)]
] -35.0 MCshow
1.200 UP
0.700 UL
LTb
0.00 0.00 0.00 C % Begin plot #1
2.000 UL
LT2
1.00 0.65 0.00 C 5545 4950 M
18 7 V
18 8 V
19 7 V
18 7 V
18 7 V
18 8 V
19 7 V
18 7 V
18 8 V
18 7 V
18 7 V
19 7 V
18 8 V
18 7 V
18 7 V
19 7 V
18 8 V
18 7 V
18 7 V
18 7 V
19 8 V
18 7 V
18 7 V
18 7 V
19 7 V
18 8 V
18 7 V
18 7 V
18 7 V
19 7 V
18 8 V
18 7 V
18 7 V
19 7 V
18 7 V
18 7 V
18 8 V
18 7 V
19 7 V
18 7 V
18 7 V
18 7 V
19 7 V
18 7 V
18 7 V
18 7 V
18 8 V
19 7 V
18 7 V
18 7 V
18 7 V
19 7 V
18 7 V
18 7 V
18 7 V
18 7 V
19 7 V
18 6 V
18 7 V
18 7 V
19 7 V
18 7 V
18 7 V
18 7 V
18 7 V
19 7 V
18 6 V
18 7 V
18 7 V
19 7 V
18 7 V
18 6 V
18 7 V
18 7 V
19 7 V
18 6 V
18 7 V
18 7 V
19 6 V
18 7 V
18 7 V
18 6 V
18 7 V
19 7 V
18 6 V
18 7 V
18 6 V
19 7 V
18 6 V
18 7 V
18 6 V
18 7 V
19 6 V
18 6 V
18 7 V
18 6 V
17 6 V
% End plot #1
% Begin plot #2
stroke
LT2
1.00 0.65 0.00 C 5545 4920 M
18 7 V
18 6 V
19 6 V
18 7 V
18 6 V
18 6 V
19 7 V
18 6 V
18 6 V
18 6 V
18 6 V
19 7 V
18 6 V
18 6 V
18 6 V
19 6 V
18 5 V
18 6 V
18 6 V
18 6 V
19 5 V
18 6 V
18 5 V
18 5 V
19 6 V
18 5 V
18 5 V
18 5 V
18 5 V
19 4 V
18 5 V
18 5 V
18 4 V
19 4 V
18 4 V
18 5 V
18 3 V
18 4 V
19 4 V
18 3 V
18 4 V
18 3 V
19 3 V
18 3 V
18 3 V
18 2 V
18 2 V
19 3 V
18 2 V
18 2 V
18 1 V
19 2 V
18 1 V
18 1 V
18 1 V
18 1 V
19 0 V
18 0 V
18 1 V
18 -1 V
19 0 V
18 -1 V
18 0 V
18 -1 V
18 -2 V
19 -1 V
18 -2 V
18 -2 V
18 -2 V
19 -3 V
18 -3 V
18 -3 V
18 -3 V
18 -3 V
19 -4 V
18 -4 V
18 -5 V
18 -4 V
19 -5 V
18 -6 V
18 -5 V
18 -6 V
18 -6 V
19 -7 V
18 -6 V
18 -7 V
18 -8 V
19 -7 V
18 -9 V
18 -8 V
18 -9 V
18 -9 V
19 -9 V
18 -10 V
18 -10 V
18 -10 V
19 -11 V
18 -11 V
18 -11 V
% End plot #2
% Begin plot #3
stroke
LT2
0.60 0.80 0.20 C 5545 4955 M
18 -7 V
18 -7 V
19 -6 V
18 -7 V
18 -6 V
18 -7 V
19 -6 V
18 -7 V
18 -7 V
18 -6 V
18 -7 V
19 -7 V
18 -6 V
18 -7 V
18 -7 V
19 -7 V
18 -7 V
18 -6 V
18 -7 V
18 -7 V
19 -7 V
18 -8 V
18 -7 V
18 -7 V
19 -7 V
18 -7 V
18 -8 V
18 -7 V
18 -8 V
19 -7 V
18 -8 V
18 -8 V
18 -7 V
19 -8 V
18 -8 V
18 -8 V
18 -8 V
18 -8 V
19 -9 V
18 -8 V
18 -8 V
18 -9 V
19 -9 V
18 -8 V
18 -9 V
18 -9 V
18 -9 V
19 -9 V
18 -10 V
18 -9 V
18 -10 V
19 -9 V
18 -10 V
18 -10 V
18 -10 V
18 -10 V
19 -10 V
18 -11 V
18 -10 V
18 -11 V
19 -11 V
18 -11 V
18 -11 V
18 -11 V
18 -11 V
19 -12 V
18 -12 V
18 -12 V
18 -12 V
19 -12 V
18 -12 V
18 -13 V
18 -12 V
18 -13 V
19 -13 V
18 -13 V
18 -14 V
18 -13 V
19 -14 V
18 -14 V
18 -14 V
18 -14 V
18 -15 V
19 -14 V
18 -15 V
18 -15 V
18 -15 V
19 -16 V
18 -16 V
18 -15 V
18 -17 V
18 -16 V
19 -16 V
18 -17 V
18 -17 V
18 -17 V
19 -18 V
18 -17 V
18 -18 V
% End plot #3
% Begin plot #4
stroke
LT2
1.00 0.65 0.00 C 5545 4920 M
18 0 V
18 0 V
19 0 V
18 0 V
18 0 V
18 0 V
19 0 V
18 0 V
18 0 V
18 0 V
18 0 V
19 0 V
18 0 V
18 0 V
18 0 V
19 0 V
18 0 V
18 0 V
18 0 V
18 0 V
19 0 V
18 0 V
18 0 V
18 0 V
19 0 V
18 0 V
18 0 V
18 0 V
18 0 V
19 0 V
18 0 V
18 0 V
18 0 V
19 0 V
18 0 V
18 0 V
18 0 V
18 0 V
19 0 V
18 0 V
18 0 V
18 0 V
19 0 V
18 0 V
18 0 V
18 0 V
18 0 V
19 0 V
18 0 V
18 0 V
18 0 V
19 0 V
18 0 V
18 0 V
18 0 V
18 0 V
19 0 V
18 0 V
18 0 V
18 0 V
19 0 V
18 0 V
18 0 V
18 0 V
18 0 V
19 0 V
18 0 V
18 0 V
18 0 V
19 0 V
18 0 V
18 0 V
18 0 V
18 0 V
19 0 V
18 0 V
18 0 V
18 0 V
19 0 V
18 0 V
18 0 V
18 0 V
18 0 V
19 0 V
18 0 V
18 0 V
18 0 V
19 0 V
18 0 V
18 0 V
18 0 V
18 0 V
19 0 V
18 0 V
18 0 V
18 0 V
19 0 V
18 0 V
18 0 V
% End plot #4
% Begin plot #5
1.200 UP
stroke
LT0
0.86 0.08 0.24 C 7133 5073 M
-327 71 V
-421 30 V
-210 -70 V
7133 5073 BoxF
6806 5144 BoxF
6385 5174 BoxF
6175 5104 BoxF
% End plot #5
% Begin plot #6
1.200 UP
2.000 UL
LT1
0.86 0.08 0.24 C 7133 5565 M
6806 5434 L
6385 5294 L
6175 5194 L
7133 5565 Box
6806 5434 Box
6385 5294 Box
6175 5194 Box
% End plot #6
% Begin plot #7
1.200 UP
2.000 UL
LT0
0.00 0.00 0.50 C 7133 4131 M
-327 230 V
-421 271 V
-210 70 V
7133 4131 CircleF
6806 4361 CircleF
6385 4632 CircleF
6175 4702 CircleF
% End plot #7
% Begin plot #8
1.200 UP
2.000 UL
LT1
0.00 0.00 0.50 C 7133 4622 M
-327 30 V
-421 101 V
-210 40 V
7133 4622 Circle
6806 4652 Circle
6385 4753 Circle
6175 4793 Circle
% End plot #8
0.700 UL
LTb
0.00 0.00 0.00 C 5545 5625 N
0 -1805 V
1804 0 V
0 1805 V
-1804 0 V
Z stroke
1.200 UP
0.700 UL
LTb
0.00 0.00 0.00 C 0.700 UL
LTb
0.00 0.00 0.00 C 5545 1931 M
15 0 V
1789 0 R
-15 0 V
5545 2112 M
31 0 V
1773 0 R
-31 0 V
stroke
5455 2112 M
[ [(Helvetica) 120.0 0.0 true true 0 (7.6)]
] -40.0 MRshow
0.700 UL
LTb
0.00 0.00 0.00 C 5545 2292 M
15 0 V
1789 0 R
-15 0 V
5545 2473 M
31 0 V
1773 0 R
-31 0 V
stroke
5455 2473 M
[ [(Helvetica) 120.0 0.0 true true 0 (7.8)]
] -40.0 MRshow
0.700 UL
LTb
0.00 0.00 0.00 C 5545 2653 M
15 0 V
1789 0 R
-15 0 V
5545 2834 M
31 0 V
1773 0 R
-31 0 V
stroke
5455 2834 M
[ [(Helvetica) 120.0 0.0 true true 0 (8.0)]
] -40.0 MRshow
0.700 UL
LTb
0.00 0.00 0.00 C 5545 3014 M
15 0 V
1789 0 R
-15 0 V
5545 3194 M
31 0 V
1773 0 R
-31 0 V
stroke
5455 3194 M
[ [(Helvetica) 120.0 0.0 true true 0 (8.2)]
] -40.0 MRshow
0.700 UL
LTb
0.00 0.00 0.00 C 5545 3375 M
15 0 V
1789 0 R
-15 0 V
5545 3555 M
31 0 V
1773 0 R
-31 0 V
stroke
5455 3555 M
[ [(Helvetica) 120.0 0.0 true true 0 (8.4)]
] -40.0 MRshow
0.700 UL
LTb
0.00 0.00 0.00 C 5545 3736 M
15 0 V
1789 0 R
-15 0 V
5545 1931 M
0 63 V
stroke
LTb
0.00 0.00 0.00 C 5745 1931 M
0 31 V
201 -31 R
0 63 V
stroke
LTb
0.00 0.00 0.00 C 6146 1931 M
0 31 V
201 -31 R
0 63 V
stroke
LTb
0.00 0.00 0.00 C 6547 1931 M
0 31 V
201 -31 R
0 63 V
stroke
LTb
0.00 0.00 0.00 C 6948 1931 M
0 31 V
201 -31 R
0 63 V
stroke
LTb
0.00 0.00 0.00 C 7349 1931 M
0 31 V
stroke
LTb
0.00 0.00 0.00 C 5545 3736 N
0 -1805 V
1804 0 V
0 1805 V
-1804 0 V
Z stroke
LCb setrgbcolor
LTb
1.200 UP
0.700 UL
LTb
0.00 0.00 0.00 C % Begin plot #1
2.000 UL
LT2
1.00 0.65 0.00 C /Helvetica findfont 150 scalefont setfont
5545 2834 M
18 0 V
18 0 V
19 0 V
18 0 V
18 0 V
18 0 V
19 0 V
18 0 V
18 0 V
18 0 V
18 0 V
19 0 V
18 0 V
18 0 V
18 0 V
19 0 V
18 0 V
18 0 V
18 0 V
18 0 V
19 0 V
18 0 V
18 0 V
18 0 V
19 0 V
18 0 V
18 0 V
18 0 V
18 0 V
19 0 V
18 0 V
18 0 V
18 0 V
19 0 V
18 0 V
18 0 V
18 0 V
18 0 V
19 0 V
18 0 V
18 0 V
18 0 V
19 0 V
18 0 V
18 0 V
18 0 V
18 0 V
19 0 V
18 0 V
18 0 V
18 0 V
19 0 V
18 0 V
18 0 V
18 0 V
18 0 V
19 0 V
18 0 V
18 0 V
18 0 V
19 0 V
18 0 V
18 0 V
18 0 V
18 0 V
19 0 V
18 0 V
18 0 V
18 0 V
19 0 V
18 0 V
18 0 V
18 0 V
18 0 V
19 0 V
18 0 V
18 0 V
18 0 V
19 0 V
18 0 V
18 0 V
18 0 V
18 0 V
19 0 V
18 0 V
18 0 V
18 0 V
19 0 V
18 0 V
18 0 V
18 0 V
18 0 V
19 0 V
18 0 V
18 0 V
18 0 V
19 0 V
18 0 V
18 0 V
% End plot #1
% Begin plot #2
1.200 UP
stroke
LT0
0.86 0.08 0.24 C /Helvetica findfont 150 scalefont setfont
7133 2166 M
-327 361 V
-421 234 V
-210 54 V
7133 2166 BoxF
6806 2527 BoxF
6385 2761 BoxF
6175 2815 BoxF
% End plot #2
% Begin plot #3
1.200 UP
2.000 UL
LT1
0.86 0.08 0.24 C /Helvetica findfont 150 scalefont setfont
7133 3050 M
-327 0 V
-421 -72 V
-210 0 V
7133 3050 Box
6806 3050 Box
6385 2978 Box
6175 2978 Box
% End plot #3
0.700 UL
LTb
0.00 0.00 0.00 C 5545 3736 N
0 -1805 V
1804 0 V
0 1805 V
-1804 0 V
Z stroke
1.200 UP
0.700 UL
LTb
0.00 0.00 0.00 C 0.700 UL
LTb
0.00 0.00 0.00 C 5545 114 M
15 0 V
1789 0 R
-15 0 V
5545 259 M
31 0 V
1773 0 R
-31 0 V
stroke
5455 259 M
[ [(Helvetica) 120.0 0.0 true true 0 (0.8)]
] -40.0 MRshow
0.700 UL
LTb
0.00 0.00 0.00 C 5545 403 M
15 0 V
1789 0 R
-15 0 V
5545 547 M
31 0 V
1773 0 R
-31 0 V
stroke
5455 547 M
[ [(Helvetica) 120.0 0.0 true true 0 (1.2)]
] -40.0 MRshow
0.700 UL
LTb
0.00 0.00 0.00 C 5545 692 M
15 0 V
1789 0 R
-15 0 V
5545 836 M
31 0 V
1773 0 R
-31 0 V
stroke
5455 836 M
[ [(Helvetica) 120.0 0.0 true true 0 (1.6)]
] -40.0 MRshow
0.700 UL
LTb
0.00 0.00 0.00 C 5545 981 M
15 0 V
1789 0 R
-15 0 V
5545 1125 M
31 0 V
1773 0 R
-31 0 V
stroke
5455 1125 M
[ [(Helvetica) 120.0 0.0 true true 0 (2.0)]
] -40.0 MRshow
0.700 UL
LTb
0.00 0.00 0.00 C 5545 1269 M
15 0 V
1789 0 R
-15 0 V
5545 1414 M
31 0 V
1773 0 R
-31 0 V
stroke
5455 1414 M
[ [(Helvetica) 120.0 0.0 true true 0 (2.4)]
] -40.0 MRshow
0.700 UL
LTb
0.00 0.00 0.00 C 5545 1558 M
15 0 V
1789 0 R
-15 0 V
5545 1703 M
31 0 V
1773 0 R
-31 0 V
stroke
5455 1703 M
[ [(Helvetica) 120.0 0.0 true true 0 (2.8)]
] -40.0 MRshow
0.700 UL
LTb
0.00 0.00 0.00 C 5545 1847 M
15 0 V
1789 0 R
-15 0 V
5545 42 M
0 63 V
stroke
5545 -108 M
[ [(Helvetica) 120.0 0.0 true true 0 (0.0)]
] -40.0 MCshow
0.700 UL
LTb
0.00 0.00 0.00 C 5745 42 M
0 31 V
5946 42 M
0 63 V
stroke
5946 -108 M
[ [(Helvetica) 120.0 0.0 true true 0 (0.2)]
] -40.0 MCshow
0.700 UL
LTb
0.00 0.00 0.00 C 6146 42 M
0 31 V
6347 42 M
0 63 V
stroke
6347 -108 M
[ [(Helvetica) 120.0 0.0 true true 0 (0.4)]
] -40.0 MCshow
0.700 UL
LTb
0.00 0.00 0.00 C 6547 42 M
0 31 V
6748 42 M
0 63 V
stroke
6748 -108 M
[ [(Helvetica) 120.0 0.0 true true 0 (0.6)]
] -40.0 MCshow
0.700 UL
LTb
0.00 0.00 0.00 C 6948 42 M
0 31 V
7149 42 M
0 63 V
stroke
7149 -108 M
[ [(Helvetica) 120.0 0.0 true true 0 (0.8)]
] -40.0 MCshow
0.700 UL
LTb
0.00 0.00 0.00 C 7349 42 M
0 31 V
stroke
LTb
0.00 0.00 0.00 C 5545 1847 N
5545 42 L
1804 0 V
0 1805 V
-1804 0 V
Z stroke
LCb setrgbcolor
LTb
LCb setrgbcolor
6447 -333 M
[ [(Helvetica) 150.0 0.0 true true 0 (1/)]
[(Helvetica-Italic) 150.0 0.0 true true 0 (L)]
[(Helvetica) 150.0 0.0 true true 0 ( \(10)]
[(Helvetica) 120.0 75.0 true true 0 (-1)]
[(Helvetica) 150.0 0.0 true true 0 ( bohr)]
[(Helvetica) 120.0 75.0 true true 0 (-1)]
[(Helvetica) 150.0 0.0 true true 0 (\))]
] -65.0 MCshow
LTb
1.200 UP
0.700 UL
LTb
0.00 0.00 0.00 C % Begin plot #1
2.000 UL
LT2
1.00 0.65 0.00 C /Helvetica findfont 150 scalefont setfont
5545 769 M
18 4 V
18 4 V
19 4 V
18 4 V
18 4 V
18 4 V
19 4 V
18 4 V
18 4 V
18 4 V
18 5 V
19 4 V
18 4 V
18 4 V
18 4 V
19 4 V
18 4 V
18 4 V
18 4 V
18 4 V
19 4 V
18 4 V
18 4 V
18 4 V
19 4 V
18 5 V
18 4 V
18 4 V
18 4 V
19 4 V
18 4 V
18 4 V
18 4 V
19 4 V
18 5 V
18 4 V
18 4 V
18 4 V
19 4 V
18 4 V
18 4 V
18 5 V
19 4 V
18 4 V
18 4 V
18 4 V
18 4 V
19 5 V
18 4 V
18 4 V
18 4 V
19 4 V
18 5 V
18 4 V
18 4 V
18 4 V
19 5 V
18 4 V
18 4 V
18 4 V
19 5 V
18 4 V
18 4 V
18 5 V
18 4 V
19 4 V
18 5 V
18 4 V
18 4 V
19 5 V
18 4 V
18 4 V
18 5 V
18 4 V
19 5 V
18 4 V
18 4 V
18 5 V
19 4 V
18 5 V
18 4 V
18 5 V
18 4 V
19 5 V
18 4 V
18 5 V
18 4 V
19 5 V
18 4 V
18 5 V
18 4 V
18 5 V
19 5 V
18 4 V
18 5 V
18 5 V
19 4 V
18 5 V
18 5 V
% End plot #1
% Begin plot #2
stroke
LT2
0.60 0.80 0.20 C /Helvetica findfont 150 scalefont setfont
5545 794 M
18 -6 V
18 -5 V
19 -5 V
18 -5 V
18 -6 V
18 -5 V
19 -5 V
18 -5 V
18 -5 V
18 -6 V
18 -5 V
19 -5 V
18 -5 V
18 -5 V
18 -5 V
19 -5 V
18 -6 V
18 -5 V
18 -5 V
18 -5 V
19 -5 V
18 -5 V
18 -5 V
18 -5 V
19 -5 V
18 -4 V
18 -5 V
18 -5 V
18 -5 V
19 -5 V
18 -4 V
18 -5 V
18 -5 V
19 -4 V
18 -5 V
18 -5 V
18 -4 V
18 -4 V
19 -5 V
18 -4 V
18 -5 V
18 -4 V
19 -4 V
18 -4 V
18 -5 V
18 -4 V
18 -4 V
19 -4 V
18 -4 V
18 -4 V
18 -3 V
19 -4 V
18 -4 V
18 -4 V
18 -3 V
18 -4 V
19 -3 V
18 -4 V
18 -3 V
18 -3 V
19 -4 V
18 -3 V
18 -3 V
18 -3 V
18 -3 V
19 -3 V
18 -3 V
18 -2 V
18 -3 V
19 -3 V
18 -2 V
18 -3 V
18 -2 V
18 -2 V
19 -2 V
18 -2 V
18 -3 V
18 -1 V
19 -2 V
18 -2 V
18 -2 V
18 -1 V
18 -2 V
19 -1 V
18 -2 V
18 -1 V
18 -1 V
19 -1 V
18 -1 V
18 -1 V
18 -1 V
18 0 V
19 -1 V
18 0 V
18 -1 V
18 0 V
19 0 V
18 0 V
18 0 V
% End plot #2
% Begin plot #3
stroke
LT2
1.00 0.65 0.00 C /Helvetica findfont 150 scalefont setfont
5545 769 M
18 0 V
18 0 V
19 0 V
18 0 V
18 0 V
18 0 V
19 0 V
18 0 V
18 0 V
18 0 V
18 0 V
19 0 V
18 0 V
18 0 V
18 0 V
19 0 V
18 0 V
18 0 V
18 0 V
18 0 V
19 0 V
18 0 V
18 0 V
18 0 V
19 0 V
18 0 V
18 0 V
18 0 V
18 0 V
19 0 V
18 0 V
18 0 V
18 0 V
19 0 V
18 0 V
18 0 V
18 0 V
18 0 V
19 0 V
18 0 V
18 0 V
18 0 V
19 0 V
18 0 V
18 0 V
18 0 V
18 0 V
19 0 V
18 0 V
18 0 V
18 0 V
19 0 V
18 0 V
18 0 V
18 0 V
18 0 V
19 0 V
18 0 V
18 0 V
18 0 V
19 0 V
18 0 V
18 0 V
18 0 V
18 0 V
19 0 V
18 0 V
18 0 V
18 0 V
19 0 V
18 0 V
18 0 V
18 0 V
18 0 V
19 0 V
18 0 V
18 0 V
18 0 V
19 0 V
18 0 V
18 0 V
18 0 V
18 0 V
19 0 V
18 0 V
18 0 V
18 0 V
19 0 V
18 0 V
18 0 V
18 0 V
18 0 V
19 0 V
18 0 V
18 0 V
18 0 V
19 0 V
18 0 V
18 0 V
% End plot #3
% Begin plot #4
1.200 UP
stroke
LT0
0.86 0.08 0.24 C /Helvetica findfont 150 scalefont setfont
7133 1139 M
-327 -93 V
6385 973 L
6175 901 L
7133 1139 BoxF
6806 1046 BoxF
6385 973 BoxF
6175 901 BoxF
% End plot #4
% Begin plot #5
1.200 UP
2.000 UL
LT0
0.00 0.00 0.50 C /Helvetica findfont 150 scalefont setfont
7133 461 M
-327 21 V
6385 584 L
-210 28 V
7133 461 CircleF
6806 482 CircleF
6385 584 CircleF
6175 612 CircleF
% End plot #5
% Begin plot #6
1.000 UL
LT5
LC5 setrgbcolor
/Helvetica findfont 150 scalefont setfont
1.200 UP
0.86 0.08 0.24 C 7115 1289 M
[ [(Helvetica) 120.0 0.0 true true 0 (32)]
] -40.0 MCshow
0.86 0.08 0.24 C 6788 1196 M
[ [(Helvetica) 120.0 0.0 true true 0 (64)]
] -40.0 MCshow
0.86 0.08 0.24 C 6367 1123 M
[ [(Helvetica) 120.0 0.0 true true 0 (216)]
] -40.0 MCshow
0.86 0.08 0.24 C 6157 1051 M
[ [(Helvetica) 120.0 0.0 true true 0 (512)]
] -40.0 MCshow
% End plot #6
0.700 UL
LTb
0.00 0.00 0.00 C 5545 1847 N
5545 42 L
1804 0 V
0 1805 V
-1804 0 V
Z stroke
1.200 UP
0.700 UL
LTb
0.00 0.00 0.00 C 0.700 UL
LTb
0.00 0.00 0.00 C 8025 3820 M
31 0 V
1773 0 R
-31 0 V
stroke
7935 3820 M
[ [(Helvetica) 120.0 0.0 true true 0 (7.6)]
] -40.0 MRshow
0.700 UL
LTb
0.00 0.00 0.00 C 8025 3959 M
15 0 V
1789 0 R
-15 0 V
8025 4098 M
31 0 V
1773 0 R
-31 0 V
stroke
7935 4098 M
[ [(Helvetica) 120.0 0.0 true true 0 (8.0)]
] -40.0 MRshow
0.700 UL
LTb
0.00 0.00 0.00 C 8025 4237 M
15 0 V
1789 0 R
-15 0 V
8025 4375 M
31 0 V
1773 0 R
-31 0 V
stroke
7935 4375 M
[ [(Helvetica) 120.0 0.0 true true 0 (8.4)]
] -40.0 MRshow
0.700 UL
LTb
0.00 0.00 0.00 C 8025 4514 M
15 0 V
1789 0 R
-15 0 V
8025 4653 M
31 0 V
1773 0 R
-31 0 V
stroke
7935 4653 M
[ [(Helvetica) 120.0 0.0 true true 0 (8.8)]
] -40.0 MRshow
0.700 UL
LTb
0.00 0.00 0.00 C 8025 4792 M
15 0 V
1789 0 R
-15 0 V
8025 4931 M
31 0 V
1773 0 R
-31 0 V
stroke
7935 4931 M
[ [(Helvetica) 120.0 0.0 true true 0 (9.2)]
] -40.0 MRshow
0.700 UL
LTb
0.00 0.00 0.00 C 8025 5070 M
15 0 V
1789 0 R
-15 0 V
8025 5208 M
31 0 V
1773 0 R
-31 0 V
stroke
7935 5208 M
[ [(Helvetica) 120.0 0.0 true true 0 (9.6)]
] -40.0 MRshow
0.700 UL
LTb
0.00 0.00 0.00 C 8025 5347 M
15 0 V
1789 0 R
-15 0 V
8025 5486 M
31 0 V
1773 0 R
-31 0 V
stroke
7935 5486 M
[ [(Helvetica) 120.0 0.0 true true 0 (10.0)]
] -40.0 MRshow
0.700 UL
LTb
0.00 0.00 0.00 C 8025 5625 M
15 0 V
1789 0 R
-15 0 V
8025 3820 M
0 63 V
stroke
LTb
0.00 0.00 0.00 C 8225 3820 M
0 31 V
201 -31 R
0 63 V
stroke
LTb
0.00 0.00 0.00 C 8626 3820 M
0 31 V
201 -31 R
0 63 V
stroke
LTb
0.00 0.00 0.00 C 9027 3820 M
0 31 V
201 -31 R
0 63 V
stroke
LTb
0.00 0.00 0.00 C 9428 3820 M
0 31 V
201 -31 R
0 63 V
stroke
LTb
0.00 0.00 0.00 C 9829 3820 M
0 31 V
stroke
LTb
0.00 0.00 0.00 C 8025 5625 N
0 -1805 V
1804 0 V
0 1805 V
-1804 0 V
Z stroke
LCb setrgbcolor
LTb
8927 5775 M
[ [(Helvetica-Italic) 150.0 0.0 true true 0 (q)]
[(Helvetica) 150.0 0.0 true true 0 (=+2@R)]
[(Helvetica) 120.0 -45.0 true true 0 (+1)]
] -35.0 MCshow
1.200 UP
0.700 UL
LTb
0.00 0.00 0.00 C % Begin plot #1
2.000 UL
LT2
1.00 0.65 0.00 C 8025 4044 M
18 18 V
18 19 V
19 18 V
18 19 V
18 18 V
18 19 V
19 18 V
18 19 V
18 18 V
18 19 V
18 18 V
19 18 V
18 19 V
18 18 V
18 19 V
19 18 V
18 18 V
18 19 V
18 18 V
18 18 V
19 19 V
18 18 V
18 18 V
18 18 V
19 19 V
18 18 V
18 18 V
18 18 V
18 18 V
19 18 V
18 18 V
18 18 V
18 18 V
19 18 V
18 18 V
18 17 V
18 18 V
18 18 V
19 18 V
18 17 V
18 18 V
18 17 V
19 18 V
18 17 V
18 18 V
18 17 V
18 17 V
19 17 V
18 18 V
18 17 V
18 17 V
19 17 V
18 17 V
18 17 V
18 16 V
18 17 V
19 17 V
18 16 V
18 17 V
18 16 V
19 17 V
18 16 V
18 17 V
18 16 V
18 16 V
19 16 V
18 16 V
18 16 V
18 16 V
19 15 V
18 16 V
18 16 V
18 15 V
18 15 V
19 16 V
18 15 V
18 15 V
18 15 V
19 15 V
18 15 V
18 15 V
18 15 V
18 14 V
19 15 V
18 14 V
18 14 V
18 15 V
19 14 V
18 14 V
18 14 V
18 13 V
18 14 V
19 14 V
18 13 V
% End plot #1
% Begin plot #2
stroke
LT2
1.00 0.65 0.00 C 8025 4023 M
18 18 V
18 18 V
19 18 V
18 17 V
18 18 V
18 18 V
19 18 V
18 18 V
18 17 V
18 18 V
18 18 V
19 18 V
18 17 V
18 18 V
18 17 V
19 18 V
18 17 V
18 17 V
18 18 V
18 17 V
19 17 V
18 17 V
18 17 V
18 17 V
19 17 V
18 17 V
18 16 V
18 17 V
18 16 V
19 17 V
18 16 V
18 16 V
18 16 V
19 16 V
18 16 V
18 15 V
18 16 V
18 15 V
19 15 V
18 16 V
18 14 V
18 15 V
19 15 V
18 14 V
18 15 V
18 14 V
18 14 V
19 14 V
18 14 V
18 13 V
18 14 V
19 13 V
18 13 V
18 13 V
18 12 V
18 13 V
19 12 V
18 12 V
18 12 V
18 11 V
19 12 V
18 11 V
18 11 V
18 10 V
18 11 V
19 10 V
18 10 V
18 10 V
18 9 V
19 10 V
18 9 V
18 9 V
18 8 V
18 8 V
19 8 V
18 8 V
18 8 V
18 7 V
19 7 V
18 6 V
18 7 V
18 6 V
18 6 V
19 5 V
18 5 V
18 5 V
18 5 V
19 4 V
18 4 V
18 4 V
18 3 V
18 3 V
19 3 V
18 2 V
18 2 V
18 2 V
19 1 V
18 1 V
18 1 V
% End plot #2
% Begin plot #3
stroke
LT2
1.00 0.65 0.00 C 8025 4023 M
18 0 V
18 0 V
19 0 V
18 0 V
18 0 V
18 0 V
19 0 V
18 0 V
18 0 V
18 0 V
18 0 V
19 0 V
18 0 V
18 0 V
18 0 V
19 0 V
18 0 V
18 0 V
18 0 V
18 0 V
19 0 V
18 0 V
18 0 V
18 0 V
19 0 V
18 0 V
18 0 V
18 0 V
18 0 V
19 0 V
18 0 V
18 0 V
18 0 V
19 0 V
18 0 V
18 0 V
18 0 V
18 0 V
19 0 V
18 0 V
18 0 V
18 0 V
19 0 V
18 0 V
18 0 V
18 0 V
18 0 V
19 0 V
18 0 V
18 0 V
18 0 V
19 0 V
18 0 V
18 0 V
18 0 V
18 0 V
19 0 V
18 0 V
18 0 V
18 0 V
19 0 V
18 0 V
18 0 V
18 0 V
18 0 V
19 0 V
18 0 V
18 0 V
18 0 V
19 0 V
18 0 V
18 0 V
18 0 V
18 0 V
19 0 V
18 0 V
18 0 V
18 0 V
19 0 V
18 0 V
18 0 V
18 0 V
18 0 V
19 0 V
18 0 V
18 0 V
18 0 V
19 0 V
18 0 V
18 0 V
18 0 V
18 0 V
19 0 V
18 0 V
18 0 V
18 0 V
19 0 V
18 0 V
18 0 V
% End plot #3
% Begin plot #4
1.200 UP
stroke
LT0
0.86 0.08 0.24 C 9613 5195 M
9286 5049 L
8865 4813 L
8655 4604 L
9613 5195 BoxF
9286 5049 BoxF
8865 4813 BoxF
8655 4604 BoxF
% End plot #4
% Begin plot #5
1.200 UP
2.000 UL
LT1
0.86 0.08 0.24 C 9613 5535 M
9286 5250 L
8865 4896 L
8655 4667 L
9613 5535 Box
9286 5250 Box
8865 4896 Box
8655 4667 Box
% End plot #5
% Begin plot #6
1.200 UP
2.000 UL
LT0
0.00 0.00 0.50 C 9613 3952 M
-327 28 V
-421 104 V
-210 -42 V
9613 3952 CircleF
9286 3980 CircleF
8865 4084 CircleF
8655 4042 CircleF
% End plot #6
% Begin plot #7
1.200 UP
2.000 UL
LT1
0.00 0.00 0.50 C 9613 4292 M
9286 4181 L
-421 -14 V
-210 -62 V
9613 4292 Circle
9286 4181 Circle
8865 4167 Circle
8655 4105 Circle
% End plot #7
0.700 UL
LTb
0.00 0.00 0.00 C 8025 5625 N
0 -1805 V
1804 0 V
0 1805 V
-1804 0 V
Z stroke
1.200 UP
0.700 UL
LTb
0.00 0.00 0.00 C 0.700 UL
LTb
0.00 0.00 0.00 C 8025 1931 M
15 0 V
1789 0 R
-15 0 V
8025 2112 M
31 0 V
1773 0 R
-31 0 V
stroke
7935 2112 M
[ [(Helvetica) 120.0 0.0 true true 0 (7.6)]
] -40.0 MRshow
0.700 UL
LTb
0.00 0.00 0.00 C 8025 2292 M
15 0 V
1789 0 R
-15 0 V
8025 2473 M
31 0 V
1773 0 R
-31 0 V
stroke
7935 2473 M
[ [(Helvetica) 120.0 0.0 true true 0 (7.8)]
] -40.0 MRshow
0.700 UL
LTb
0.00 0.00 0.00 C 8025 2653 M
15 0 V
1789 0 R
-15 0 V
8025 2834 M
31 0 V
1773 0 R
-31 0 V
stroke
7935 2834 M
[ [(Helvetica) 120.0 0.0 true true 0 (8.0)]
] -40.0 MRshow
0.700 UL
LTb
0.00 0.00 0.00 C 8025 3014 M
15 0 V
1789 0 R
-15 0 V
8025 3194 M
31 0 V
1773 0 R
-31 0 V
stroke
7935 3194 M
[ [(Helvetica) 120.0 0.0 true true 0 (8.2)]
] -40.0 MRshow
0.700 UL
LTb
0.00 0.00 0.00 C 8025 3375 M
15 0 V
1789 0 R
-15 0 V
8025 3555 M
31 0 V
1773 0 R
-31 0 V
stroke
7935 3555 M
[ [(Helvetica) 120.0 0.0 true true 0 (8.4)]
] -40.0 MRshow
0.700 UL
LTb
0.00 0.00 0.00 C 8025 3736 M
15 0 V
1789 0 R
-15 0 V
8025 1931 M
0 63 V
stroke
LTb
0.00 0.00 0.00 C 8225 1931 M
0 31 V
201 -31 R
0 63 V
stroke
LTb
0.00 0.00 0.00 C 8626 1931 M
0 31 V
201 -31 R
0 63 V
stroke
LTb
0.00 0.00 0.00 C 9027 1931 M
0 31 V
201 -31 R
0 63 V
stroke
LTb
0.00 0.00 0.00 C 9428 1931 M
0 31 V
201 -31 R
0 63 V
stroke
LTb
0.00 0.00 0.00 C 9829 1931 M
0 31 V
stroke
LTb
0.00 0.00 0.00 C 8025 3736 N
0 -1805 V
1804 0 V
0 1805 V
-1804 0 V
Z stroke
LCb setrgbcolor
LTb
1.200 UP
0.700 UL
LTb
0.00 0.00 0.00 C % Begin plot #1
2.000 UL
LT2
1.00 0.65 0.00 C /Helvetica findfont 150 scalefont setfont
8025 2834 M
18 0 V
18 0 V
19 0 V
18 0 V
18 0 V
18 0 V
19 0 V
18 0 V
18 0 V
18 0 V
18 0 V
19 0 V
18 0 V
18 0 V
18 0 V
19 0 V
18 0 V
18 0 V
18 0 V
18 0 V
19 0 V
18 0 V
18 0 V
18 0 V
19 0 V
18 0 V
18 0 V
18 0 V
18 0 V
19 0 V
18 0 V
18 0 V
18 0 V
19 0 V
18 0 V
18 0 V
18 0 V
18 0 V
19 0 V
18 0 V
18 0 V
18 0 V
19 0 V
18 0 V
18 0 V
18 0 V
18 0 V
19 0 V
18 0 V
18 0 V
18 0 V
19 0 V
18 0 V
18 0 V
18 0 V
18 0 V
19 0 V
18 0 V
18 0 V
18 0 V
19 0 V
18 0 V
18 0 V
18 0 V
18 0 V
19 0 V
18 0 V
18 0 V
18 0 V
19 0 V
18 0 V
18 0 V
18 0 V
18 0 V
19 0 V
18 0 V
18 0 V
18 0 V
19 0 V
18 0 V
18 0 V
18 0 V
18 0 V
19 0 V
18 0 V
18 0 V
18 0 V
19 0 V
18 0 V
18 0 V
18 0 V
18 0 V
19 0 V
18 0 V
18 0 V
18 0 V
19 0 V
18 0 V
18 0 V
% End plot #1
% Begin plot #2
1.200 UP
stroke
LT0
0.86 0.08 0.24 C /Helvetica findfont 150 scalefont setfont
9613 2328 M
-327 397 V
-421 199 V
-210 36 V
9613 2328 BoxF
9286 2725 BoxF
8865 2924 BoxF
8655 2960 BoxF
% End plot #2
% Begin plot #3
1.200 UP
2.000 UL
LT1
0.86 0.08 0.24 C /Helvetica findfont 150 scalefont setfont
9613 3213 M
-327 36 V
8865 3140 L
-210 -18 V
9613 3213 Box
9286 3249 Box
8865 3140 Box
8655 3122 Box
% End plot #3
0.700 UL
LTb
0.00 0.00 0.00 C 8025 3736 N
0 -1805 V
1804 0 V
0 1805 V
-1804 0 V
Z stroke
1.200 UP
0.700 UL
LTb
0.00 0.00 0.00 C 0.700 UL
LTb
0.00 0.00 0.00 C 8025 42 M
31 0 V
1773 0 R
-31 0 V
stroke
7935 42 M
[ [(Helvetica) 120.0 0.0 true true 0 (-0.4)]
] -40.0 MRshow
0.700 UL
LTb
0.00 0.00 0.00 C 8025 171 M
15 0 V
1789 0 R
-15 0 V
8025 300 M
31 0 V
1773 0 R
-31 0 V
stroke
7935 300 M
[ [(Helvetica) 120.0 0.0 true true 0 (0.0)]
] -40.0 MRshow
0.700 UL
LTb
0.00 0.00 0.00 C 8025 429 M
15 0 V
1789 0 R
-15 0 V
8025 558 M
31 0 V
1773 0 R
-31 0 V
stroke
7935 558 M
[ [(Helvetica) 120.0 0.0 true true 0 (0.4)]
] -40.0 MRshow
0.700 UL
LTb
0.00 0.00 0.00 C 8025 687 M
15 0 V
1789 0 R
-15 0 V
8025 816 M
31 0 V
1773 0 R
-31 0 V
stroke
7935 816 M
[ [(Helvetica) 120.0 0.0 true true 0 (0.8)]
] -40.0 MRshow
0.700 UL
LTb
0.00 0.00 0.00 C 8025 944 M
15 0 V
1789 0 R
-15 0 V
8025 1073 M
31 0 V
1773 0 R
-31 0 V
stroke
7935 1073 M
[ [(Helvetica) 120.0 0.0 true true 0 (1.2)]
] -40.0 MRshow
0.700 UL
LTb
0.00 0.00 0.00 C 8025 1202 M
15 0 V
1789 0 R
-15 0 V
8025 1331 M
31 0 V
1773 0 R
-31 0 V
stroke
7935 1331 M
[ [(Helvetica) 120.0 0.0 true true 0 (1.6)]
] -40.0 MRshow
0.700 UL
LTb
0.00 0.00 0.00 C 8025 1460 M
15 0 V
1789 0 R
-15 0 V
8025 1589 M
31 0 V
1773 0 R
-31 0 V
stroke
7935 1589 M
[ [(Helvetica) 120.0 0.0 true true 0 (2.0)]
] -40.0 MRshow
0.700 UL
LTb
0.00 0.00 0.00 C 8025 1718 M
15 0 V
1789 0 R
-15 0 V
8025 1847 M
31 0 V
1773 0 R
-31 0 V
stroke
7935 1847 M
[ [(Helvetica) 120.0 0.0 true true 0 (2.4)]
] -40.0 MRshow
0.700 UL
LTb
0.00 0.00 0.00 C 8025 42 M
0 63 V
stroke
8025 -108 M
[ [(Helvetica) 120.0 0.0 true true 0 (0.0)]
] -40.0 MCshow
0.700 UL
LTb
0.00 0.00 0.00 C 8225 42 M
0 31 V
8426 42 M
0 63 V
stroke
8426 -108 M
[ [(Helvetica) 120.0 0.0 true true 0 (0.2)]
] -40.0 MCshow
0.700 UL
LTb
0.00 0.00 0.00 C 8626 42 M
0 31 V
8827 42 M
0 63 V
stroke
8827 -108 M
[ [(Helvetica) 120.0 0.0 true true 0 (0.4)]
] -40.0 MCshow
0.700 UL
LTb
0.00 0.00 0.00 C 9027 42 M
0 31 V
9228 42 M
0 63 V
stroke
9228 -108 M
[ [(Helvetica) 120.0 0.0 true true 0 (0.6)]
] -40.0 MCshow
0.700 UL
LTb
0.00 0.00 0.00 C 9428 42 M
0 31 V
9629 42 M
0 63 V
stroke
9629 -108 M
[ [(Helvetica) 120.0 0.0 true true 0 (0.8)]
] -40.0 MCshow
0.700 UL
LTb
0.00 0.00 0.00 C 9829 42 M
0 31 V
stroke
LTb
0.00 0.00 0.00 C 8025 1847 N
8025 42 L
1804 0 V
0 1805 V
-1804 0 V
Z stroke
LCb setrgbcolor
LTb
LCb setrgbcolor
8927 -333 M
[ [(Helvetica) 150.0 0.0 true true 0 (1/)]
[(Helvetica-Italic) 150.0 0.0 true true 0 (L)]
[(Helvetica) 150.0 0.0 true true 0 ( \(10)]
[(Helvetica) 120.0 75.0 true true 0 (-1)]
[(Helvetica) 150.0 0.0 true true 0 ( bohr)]
[(Helvetica) 120.0 75.0 true true 0 (-1)]
[(Helvetica) 150.0 0.0 true true 0 (\))]
] -65.0 MCshow
LTb
1.200 UP
0.700 UL
LTb
0.00 0.00 0.00 C % Begin plot #1
2.000 UL
LT2
1.00 0.65 0.00 C /Helvetica findfont 150 scalefont setfont
8025 233 M
18 15 V
18 15 V
19 14 V
18 15 V
18 15 V
18 14 V
19 15 V
18 15 V
18 14 V
18 15 V
18 15 V
19 14 V
18 15 V
18 14 V
18 15 V
19 15 V
18 14 V
18 15 V
18 15 V
18 14 V
19 15 V
18 14 V
18 15 V
18 15 V
19 14 V
18 15 V
18 14 V
18 15 V
18 15 V
19 14 V
18 15 V
18 14 V
18 15 V
19 15 V
18 14 V
18 15 V
18 14 V
18 15 V
19 14 V
18 15 V
18 14 V
18 15 V
19 14 V
18 15 V
18 14 V
18 15 V
18 14 V
19 15 V
18 14 V
18 15 V
18 14 V
19 15 V
18 14 V
18 14 V
18 15 V
18 14 V
19 15 V
18 14 V
18 14 V
18 15 V
19 14 V
18 15 V
18 14 V
18 14 V
18 15 V
19 14 V
18 14 V
18 15 V
18 14 V
19 14 V
18 14 V
18 15 V
18 14 V
18 14 V
19 14 V
18 15 V
18 14 V
18 14 V
19 14 V
18 14 V
18 14 V
18 15 V
18 14 V
19 14 V
18 14 V
18 14 V
18 14 V
19 14 V
18 14 V
18 14 V
18 14 V
18 14 V
19 14 V
18 14 V
18 14 V
18 14 V
19 14 V
18 14 V
18 14 V
% End plot #1
% Begin plot #2
stroke
LT2
0.60 0.80 0.20 C /Helvetica findfont 150 scalefont setfont
8025 287 M
18 -3 V
18 -2 V
19 -2 V
18 -2 V
18 -3 V
18 -2 V
19 -2 V
18 -2 V
18 -3 V
18 -2 V
18 -2 V
19 -2 V
18 -2 V
18 -2 V
18 -2 V
19 -2 V
18 -2 V
18 -2 V
18 -2 V
18 -2 V
19 -2 V
18 -2 V
18 -1 V
18 -2 V
19 -2 V
18 -1 V
18 -2 V
18 -1 V
18 -1 V
19 -2 V
18 -1 V
18 -1 V
18 -1 V
19 -1 V
18 -1 V
18 -1 V
18 -1 V
18 0 V
19 -1 V
18 -1 V
18 0 V
18 0 V
19 -1 V
18 0 V
18 0 V
18 0 V
18 0 V
19 1 V
18 0 V
18 1 V
18 0 V
19 1 V
18 1 V
18 1 V
18 1 V
18 1 V
19 1 V
18 2 V
18 1 V
18 2 V
19 2 V
18 2 V
18 2 V
18 2 V
18 3 V
19 2 V
18 3 V
18 3 V
18 3 V
19 3 V
18 3 V
18 4 V
18 3 V
18 4 V
19 4 V
18 4 V
18 5 V
18 4 V
19 5 V
18 5 V
18 5 V
18 5 V
18 5 V
19 6 V
18 6 V
18 6 V
18 6 V
19 6 V
18 7 V
18 7 V
18 7 V
18 7 V
19 7 V
18 8 V
18 8 V
18 8 V
19 8 V
18 8 V
18 9 V
% End plot #2
% Begin plot #3
stroke
LT2
1.00 0.65 0.00 C /Helvetica findfont 150 scalefont setfont
8025 233 M
18 0 V
18 0 V
19 0 V
18 0 V
18 0 V
18 0 V
19 0 V
18 0 V
18 0 V
18 0 V
18 0 V
19 0 V
18 0 V
18 0 V
18 0 V
19 0 V
18 0 V
18 0 V
18 0 V
18 0 V
19 0 V
18 0 V
18 0 V
18 0 V
19 0 V
18 0 V
18 0 V
18 0 V
18 0 V
19 0 V
18 0 V
18 0 V
18 0 V
19 0 V
18 0 V
18 0 V
18 0 V
18 0 V
19 0 V
18 0 V
18 0 V
18 0 V
19 0 V
18 0 V
18 0 V
18 0 V
18 0 V
19 0 V
18 0 V
18 0 V
18 0 V
19 0 V
18 0 V
18 0 V
18 0 V
18 0 V
19 0 V
18 0 V
18 0 V
18 0 V
19 0 V
18 0 V
18 0 V
18 0 V
18 0 V
19 0 V
18 0 V
18 0 V
18 0 V
19 0 V
18 0 V
18 0 V
18 0 V
18 0 V
19 0 V
18 0 V
18 0 V
18 0 V
19 0 V
18 0 V
18 0 V
18 0 V
18 0 V
19 0 V
18 0 V
18 0 V
18 0 V
19 0 V
18 0 V
18 0 V
18 0 V
18 0 V
19 0 V
18 0 V
18 0 V
18 0 V
19 0 V
18 0 V
18 0 V
% End plot #3
% Begin plot #4
1.200 UP
stroke
LT0
0.86 0.08 0.24 C /Helvetica findfont 150 scalefont setfont
9613 1499 M
9286 1222 L
8865 932 L
8655 725 L
9613 1499 BoxF
9286 1222 BoxF
8865 932 BoxF
8655 725 BoxF
% End plot #4
% Begin plot #5
1.200 UP
2.000 UL
LT0
0.00 0.00 0.50 C /Helvetica findfont 150 scalefont setfont
9613 345 M
9286 229 L
-421 26 V
8655 203 L
9613 345 CircleF
9286 229 CircleF
8865 255 CircleF
8655 203 CircleF
% End plot #5
% Begin plot #6
1.000 UL
LT5
LC5 setrgbcolor
/Helvetica findfont 150 scalefont setfont
1.200 UP
0.86 0.08 0.24 C 9595 1649 M
[ [(Helvetica) 120.0 0.0 true true 0 (32)]
] -40.0 MCshow
0.86 0.08 0.24 C 9268 1372 M
[ [(Helvetica) 120.0 0.0 true true 0 (64)]
] -40.0 MCshow
0.86 0.08 0.24 C 8847 1082 M
[ [(Helvetica) 120.0 0.0 true true 0 (216)]
] -40.0 MCshow
0.86 0.08 0.24 C 8637 875 M
[ [(Helvetica) 120.0 0.0 true true 0 (512)]
] -40.0 MCshow
% End plot #6
0.700 UL
LTb
0.00 0.00 0.00 C 8025 1847 N
8025 42 L
1804 0 V
0 1805 V
-1804 0 V
Z stroke
1.200 UP
0.700 UL
LTb
0.00 0.00 0.00 C stroke
grestore
end
showpage
%%Trailer
%%DocumentFonts: Helvetica-Italic Helvetica
